Avg_success,Best reward,EnvTotalSteps,EpLenMean,EpRewMean,EpThisIter,Kp,LearningRate,TimeStepsSoFar,TimeThisIter,adv,approxkl,clipfrac,cliprange,cur_num,difficulty,dist_difficulty,eps,height_coeff,learning_rate,max yaw,max_disturbance,policy_entropy,policy_loss,pos error,ratio,run_times,std,touchdown_dists_left,touchdown_dists_right,touchdown_left,touchdown_right,train_times,value_loss
0.021406727,1,8640,118.07033639143731,36.531686667734526,327,400.0,0.0003,0,57.17411684989929,3.58201e-11,0.07040721,0.535164,0.19999987,3,10,0,0.5,0.07,0.00029999996,1.25,100,17.026447,0.012672196,0.4298812792574065,1.0039825,44.54736040532589,0.9999377,-0.0756923065849801,-0.0705815654224034,0.0,0.0,0.0,15.845495
0.036144577,1,17280,118.69578313253012,42.21625403022023,332,400.0,0.00029988417299999995,38609,52.54735255241394,-8.3053003e-10,0.061696034,0.5304383,0.19999987,3,10,0,0.5,0.07,0.00029988406,1.25,100,17.108624,0.0072095147,0.4479411073586455,0.9920062,42.10172125697136,1.0068107,-0.15173314598551357,-0.45674230512411285,2.44,2.35,10.72856616973877,64.8091
0.033333335,1,25920,118.76060606060607,41.484999518263415,330,400.0,0.00029976595199999995,78016,54.75960683822632,3.4039063e-10,0.06948884,0.5368158,0.19999987,3,10,0,0.5,0.07,0.00029976608,1.25,100,17.123838,-0.019207979,0.44108135495557865,0.9820943,43.74101786315441,1.0080937,-0.133979994630343,-0.03113648150277907,3.04,3.05,10.435999721288681,15.7677555
0.04923077,1,34560,118.98769230769231,47.463903029853036,325,400.0,0.00029964837899999996,117207,53.03394794464111,2.026852e-09,0.06402402,0.50723684,0.19999987,3,10,0,0.5,0.07,0.0002996481,1.25,100,17.132421,-0.009702125,0.4331450395395617,0.98931867,42.25738947093487,1.0088289,0.1703192899429504,0.012357295126314742,0.0,0.4,11.019886463880539,34.219776
0.04658385,1,43200,118.31055900621118,48.91553844160158,322,400.0,0.000299532366,155878,53.204461336135864,2.2351741e-10,0.05367422,0.46314391,0.19999987,3,10,0,0.5,0.07,0.00029953214,1.25,100,17.130867,-0.02070566,0.43496026161170853,0.99329895,43.029202580451965,1.0087222,-0.0750305375903956,0.0,0.0,0.0,10.791125029325485,35.939205
0.05362776,1,51840,119.198738170347,49.5749611343867,317,400.0,0.000299418078,193974,51.92893147468567,-5.4494315e-10,0.057001904,0.49778843,0.19999987,3,10,0,0.5,0.07,0.00029941823,1.25,100,17.12259,-0.01855455,0.41135818889478015,0.9969795,41.67259131371975,1.0080403,0.0,0.0,0.0,0.0,10.159723177552223,70.45836
0.050473187,1,60480,118.4416403785489,52.84018611969506,317,400.0,0.00029930471999999996,231760,52.68096923828125,3.5767822e-09,0.046168633,0.44881758,0.19999987,3,10,0,0.5,0.07,0.00029930472,1.25,100,17.120028,-0.016616471,0.45464325556478224,0.9961096,41.95758353173733,1.00785,0.0,0.0,0.0,0.0,10.251989498734474,96.56541
0.064935066,1,69120,119.04545454545455,55.858006201672524,308,400.0,0.000299192082,269306,52.60693717002869,2.5870072e-11,0.061552506,0.5078125,0.19999987,3,10,0,0.5,0.07,0.0002991923,1.25,100,17.1039,-0.022024287,0.41627607358385604,0.9951813,42.65581192076206,1.0065227,0.15965201429718184,0.1412054910707049,0.6,0.9,10.731682181358337,23.00733
0.09090909,1,77760,118.97306397306397,64.44757359859929,297,400.0,0.000299082084,305972,52.3668327331543,3.5067146e-10,0.052583713,0.50625,0.19999988,3,10,0,0.5,0.07,0.0002990819,1.25,100,17.099049,-0.018533936,0.41234942021817034,0.9749231,42.210111394524574,1.0061561,0.13078030511502095,0.09001016872872375,1.4666666666666668,1.3,9.943009912967682,112.26161
0.06752411,1,86400,119.26045016077171,56.15666994187552,311,400.0,0.00029897607899999996,341307,53.32369637489319,-1.1431027e-09,0.0822997,0.5539383,0.19999987,3,10,0,0.5,0.07,0.00029897623,1.25,100,17.074568,-0.014931251,0.44695178389423224,0.99643904,42.80250768363476,1.0041307,0.0,0.0,0.0,0.0,10.166675493121147,70.73554
0.0945946,1,95040,119.1891891891892,66.53872044105321,296,400.0,0.000298864809,378397,51.793702363967896,9.313226e-10,0.04681253,0.44553572,0.19999988,3,10,0,0.5,0.07,0.000298865,1.25,100,17.04041,-0.01688559,0.43987468209135683,0.99840677,42.35307274758816,1.0012673,0.0,0.0,0.0,0.0,10.512656390666962,77.872955
0.0751634,1,103680,119.24509803921569,60.3362286720906,306,400.0,0.00029875896899999996,413677,52.29047656059265,-1.9737962e-09,0.05093877,0.45399368,0.19999988,3,10,0,0.5,0.07,0.00029875897,1.25,100,17.004904,-0.023897914,0.41419633787658094,1.0066161,42.62900796532631,0.9983337,-0.35532274738824676,-0.4502564756319222,2.9,2.8,9.437493488192558,41.470284
0.10380623,1,112320,119.22145328719724,72.08834050401944,289,400.0,0.000298649502,450166,52.306729793548584,-1.027194e-09,0.043372087,0.416229,0.19999988,3,10,0,0.5,0.07,0.00029864928,1.25,100,16.997879,-0.019324875,0.44776426274942543,0.9970546,43.117027059197426,0.99775493,0.11753933695500937,0.13031679748795577,2.7142857142857144,1.925,9.660227432847023,86.36671
0.055194806,1,120960,119.35064935064935,54.299889187283846,308,400.0,0.000298546137,484621,52.433234453201294,3.6022146e-10,0.05753073,0.4949889,0.19999987,3,10,0,0.5,0.07,0.0002985461,1.25,100,16.998674,-0.03654656,0.430122032572328,0.98699796,42.57408307492733,0.99784935,0.12886478685955582,0.15438229226399114,2.0,2.371428571428571,9.18921010196209,36.00925
0.10996564,1,129600,119.59450171821305,70.55508297430313,291,400.0,0.000298435857,521381,50.47912669181824,7.672986e-10,0.052831657,0.4583955,0.19999988,3,10,0,0.5,0.07,0.000298436,1.25,100,16.980453,-0.016977955,0.42226765491468415,0.9846688,41.392362639307976,0.99633616,0.1444333942964105,0.0963809567950487,0.7,1.9,9.859949052333832,236.05841
0.125,1,138240,119.34285714285714,79.75634944365618,280,400.0,0.000298331451,556183,51.04021692276001,6.7732553e-10,0.05695635,0.48342803,0.19999988,3,10,0,0.5,0.07,0.0002983313,1.25,100,16.96438,-0.02946645,0.4377633135812399,1.0028169,42.104270711541176,0.9950002,0.0,0.0,0.0,0.0,9.087690144777298,65.27222
0.11785714,1,146880,118.96071428571429,77.6914969354444,280,400.0,0.000298231203,589599,50.97519135475159,-1.760949e-09,0.048705895,0.44349203,0.19999988,3,10,0,0.5,0.07,0.00029823126,1.25,100,16.945646,-0.01694906,0.3886539983745051,0.9866956,41.92104563117027,0.9934355,-0.22038629775288993,-0.04485041321403864,3.766666666666667,3.6,8.941386610269547,176.19087
0.113074206,1,155520,119.63957597173145,74.77296283430839,283,400.0,0.00029813127599999996,622908,50.3960862159729,-1.1923751e-09,0.055027016,0.4510854,0.19999988,3,10,0,0.5,0.07,0.0002981313,1.25,100,16.92253,-0.019555332,0.42741570061580036,0.99892735,41.37684451043606,0.99156076,0.0,0.0,0.0,0.0,9.04458199441433,106.42481
0.16730037,1,164160,119.53231939163499,93.18760413319778,263,400.0,0.00029802970199999996,656766,49.99479913711548,-2.8840957e-10,0.040955853,0.3997984,0.19999988,3,10,0,0.5,0.07,0.0002980296,1.25,100,16.899359,-0.01339576,0.420164832440341,0.9975362,41.643243461847305,0.98962456,-0.3106498052532694,0.1349780281996958,3.08,3.6333333333333333,9.021329328417778,142.52837
0.18532819,1,172800,119.28185328185329,106.625363897231,259,400.0,0.000297935391,688203,49.87496638298035,7.801078e-10,0.05655711,0.47106853,0.19999988,3,10,0,0.5,0.07,0.00029793553,1.25,100,16.88687,-0.019569397,0.42636469281705036,0.99092,41.71441374719143,0.9886216,0.12893138687564556,0.0,0.0,0.0,8.350023448467255,135.52167
0.078085646,1,184640,116.22166246851386,75.69229252049166,397,400.0,0.00029784270899999997,719097,65.78500866889954,-2.486865e-10,0.043648433,0.42400315,0.19999988,3,10,0,0.5,0.07,0.0002978426,1.25,100,16.878716,-0.031638537,0.4183979119302773,1.0141593,57.40629915893078,0.9879884,-0.01207929378642435,-0.007647323225195993,2.0,2.85,8.179012462496758,88.969055
0.14772727,1,193280,119.73863636363636,89.35559449277032,264,400.0,0.00029770428899999996,765237,49.698262214660645,1.5214463e-09,0.041581772,0.4095622,0.19999988,3,10,0,0.5,0.07,0.0002977045,1.25,100,16.845457,-0.021848788,0.4329816864217519,0.9908837,41.20144633948803,0.9852968,0.0,0.0,0.0,0.0,8.357333272695541,170.88629
0.12915128,1,201920,119.63468634686348,83.7603699468245,271,400.0,0.00029760945599999997,796848,49.4477653503418,5.0931703e-10,0.0462006,0.42293772,0.19999988,3,10,0,0.5,0.07,0.00029760957,1.25,100,16.826763,-0.022615906,0.39422129904230513,0.99570256,40.82240006327629,0.9837833,0.12955985173811815,0.15329220310524805,1.2,0.0,8.498467683792114,110.20701
0.171875,1,210560,119.6796875,96.2980855340268,256,400.0,0.000297512193,829269,49.63121294975281,2.9771787e-09,0.044695415,0.40625,0.19999988,3,10,0,0.5,0.07,0.00029751222,1.25,100,16.827656,-0.022074105,0.4181169385894002,0.98839235,41.323119819164276,0.9838105,0.0,-0.11456344535009415,0.0,0.0,8.626040607690811,109.44276
0.14179105,1,219200,119.49253731343283,84.00941796114283,268,400.0,0.000297420279,859907,49.116915225982666,-4.310469e-11,0.058410175,0.46971422,0.19999988,3,10,0,0.5,0.07,0.00029742034,1.25,100,16.78626,-0.02672648,0.41171429305288293,0.98737,40.73176446557045,0.9804463,0.15912813229908787,0.13896604183416314,1.95,1.6400000000000001,8.306304946541786,119.139
0.16731517,1,227840,119.2295719844358,98.037898487451,257,400.0,0.00029732420699999995,891931,49.75500130653381,-3.3670894e-10,0.051855486,0.45296475,0.19999988,3,10,0,0.5,0.07,0.00029732412,1.25,100,16.796701,-0.0083931815,0.43802857854232363,0.99410975,41.61637073755264,0.9813809,0.0,0.0,0.0,0.0,8.38660016655922,101.83705
0.17786561,1,236480,119.86166007905139,97.36527012426339,253,400.0,0.00029723228099999994,922573,48.48321604728699,4.2619847e-10,0.04431058,0.41596043,0.19999988,3,10,0,0.5,0.07,0.00029723227,1.25,100,16.805279,-0.013942918,0.43098360995491725,0.9851633,40.472037613391876,0.9821405,0.1535344501815437,0.1436771067903849,0.4,0.0,8.137499049305916,166.5808
0.20416667,1,245120,119.70416666666667,109.44545916647458,240,400.0,0.000297141306,952898,49.3261821269989,-1.9625574e-11,0.040679324,0.41954023,0.1999999,3,10,0,0.5,0.07,0.00029714135,1.25,100,16.77393,-0.025372488,0.4116219483181503,0.99771065,41.43882945179939,0.9795592,0.16543998048705957,-0.025379878022853533,0.0,0.5,8.0100487023592,109.62047
0.22357723,1,253760,119.71138211382114,111.3247171456188,246,400.0,0.00029705511899999997,981627,47.98027801513672,1.4597534e-10,0.04547167,0.4356877,0.1999999,3,10,0,0.5,0.07,0.00029705488,1.25,100,16.775322,-0.018343078,0.46175463282333845,1.0023637,40.053457751870155,0.9796716,-0.010968242892174039,-0.029873320230937098,2.1333333333333333,1.95,7.900798171758652,116.513664
0.21399178,1,262400,119.62962962962963,112.41098852341023,243,400.0,0.00029696677199999997,1011076,49.02905082702637,-1.6883626e-09,0.04745013,0.4217227,0.1999999,3,10,0,0.5,0.07,0.0002969669,1.25,100,16.761229,-0.01638826,0.4296073888130761,0.9948302,41.273781195282936,0.9785007,0.0,0.0,0.0,0.0,7.914603695273399,158.75923
0.19183673,1,271040,119.37551020408164,108.15102459725315,245,400.0,0.000296879562,1040146,50.577505350112915,-5.0861704e-10,0.044368733,0.41749787,0.1999999,3,10,0,0.5,0.07,0.00029687956,1.25,100,16.747993,-0.022245163,0.4295756832488701,0.9898434,42.74737299978733,0.97743887,0.0,0.0,0.0,0.0,7.7689212411642075,119.535934
0.26050422,1,279680,119.55882352941177,128.6051348915889,238,400.0,0.000296791821,1069393,47.1497585773468,5.684696e-10,0.045575418,0.41883117,0.1999999,3,10,0,0.5,0.07,0.00029679196,1.25,100,16.705677,-0.015027192,0.4289574237078808,0.98761797,39.67482556402683,0.9740311,0.07730603001170663,0.0,0.0,0.0,7.814906939864159,292.61395
0.2599119,1,288320,119.6079295154185,130.33104007567786,227,400.0,0.00029670645599999995,1097848,47.607670307159424,-9.544133e-11,0.040860172,0.4070248,0.1999999,3,10,0,0.5,0.07,0.00029670636,1.25,100,16.71591,-0.027848618,0.39091384012551866,0.98507833,40.1518527418375,0.97487384,-0.09975852927694631,-0.10127153493244465,4.0,3.3600000000000003,7.482871979475021,221.13411
0.30769232,1,296960,119.7918552036199,137.8867433165166,221,400.0,0.00029662500299999995,1124999,47.800010204315186,9.313226e-10,0.039583046,0.37620193,0.1999999,3,10,0,0.5,0.07,0.0002966251,1.25,100,16.690657,-0.017607344,0.40403719115138725,0.9909742,40.753927528858185,0.9727677,0.12442820949245233,0.144993438105394,3.6333333333333333,3.0285714285714285,7.453840792179108,261.49884
0.28820962,1,305600,119.93449781659389,134.72112604212083,229,400.0,0.00029654558099999996,1151473,47.53214931488037,-2.9319414e-10,0.045425273,0.40246618,0.1999999,3,10,0,0.5,0.07,0.00029654545,1.25,100,16.676313,-0.028684665,0.40841503345195285,0.99400765,40.18540947139263,0.9715954,0.1689419049070797,0.14518573948250968,0.5,0.7,7.046595707535744,138.74622
0.2033195,1,314240,119.66804979253112,113.33440321240671,241,400.0,0.00029646318599999997,1178938,47.150795698165894,-1.1475e-09,0.052517887,0.46465924,0.1999999,3,10,0,0.5,0.07,0.00029646317,1.25,100,16.672312,-0.020221896,0.4449252283961004,0.98102754,39.400808215141296,0.9712817,0.19781661192114255,0.10072888626050983,2.685714285714286,3.2285714285714286,7.345689684152603,201.69302
0.2184874,1,322880,119.74369747899159,114.2796933182444,238,400.0,0.00029637666599999994,1207778,49.34757089614868,1.0456955e-09,0.048326213,0.4506579,0.1999999,3,10,0,0.5,0.07,0.00029637667,1.25,100,16.65065,-0.021325499,0.4254346474259843,0.9899475,41.53226536512375,0.96958375,-0.20773354756173362,0.01622123675549309,2.8666666666666667,4.0,7.831059917807579,127.057205
0.2863436,1,331520,119.90308370044053,133.9218555474602,227,400.0,0.000296291169,1236277,46.839722633361816,-1.971425e-09,0.044814307,0.3842655,0.1999999,3,10,0,0.5,0.07,0.00029629102,1.25,100,16.653736,-0.016625956,0.44020323003411327,0.99561334,39.63178510963917,0.9698123,0.0,0.0,0.0,0.0,7.72518864274025,217.18874
0.29680365,1,340160,119.55707762557077,142.33015988066396,219,400.0,0.00029620951499999997,1263495,46.35577344894409,1.4686241e-09,0.048391555,0.43088943,0.1999999,3,10,0,0.5,0.07,0.0002962097,1.25,100,16.625301,-2.8341721e-05,0.3937340639599637,1.0017352,39.31502793729305,0.96753174,0.13114124166281504,-0.06617752357205212,0.0,0.0,7.207861706614494,261.96918
0.3105023,1,348800,119.53881278538813,148.4677929804465,219,400.0,0.00029613096599999996,1289678,47.51622676849365,-2.8476979e-09,0.039200716,0.35236377,0.1999999,3,10,0,0.5,0.07,0.00029613083,1.25,100,16.609379,-0.007941724,0.4183597852834148,0.99065423,40.43685308098793,0.9662472,0.2985684026715147,-0.18150457190472516,3.2285714285714286,3.457142857142857,7.044189929962158,245.53946
0.18644068,1,361640,117.76271186440678,108.69773230871638,354,400.0,0.00029605242899999996,1315857,66.4471001625061,-2.9879932e-09,0.034965016,0.35091147,0.19999991,3,10,0,0.5,0.07,0.00029605252,1.25,100,16.592604,-0.013330278,0.4215179879662679,1.0022389,59.846435233950615,0.9648707,0.0,0.0,0.0,0.0,7.075453341007233,189.17308
0.3255814,1,370280,119.80465116279069,153.96983493911216,215,400.0,0.000295927365,1357545,46.58640456199646,1.128138e-09,0.040956423,0.4042756,0.1999999,3,10,0,0.5,0.07,0.00029592752,1.25,100,16.585184,-0.016126335,0.4362766820498686,0.994384,39.67311339080334,0.9642757,0.12388296966541718,0.13305866918865494,1.1,1.2,6.596654564142227,174.91699
0.26200873,1,378920,119.35807860262008,130.38471104305833,229,400.0,0.00029585009099999997,1383303,48.85752201080322,9.65816e-10,0.055003643,0.42959103,0.1999999,3,10,0,0.5,0.07,0.00029585022,1.25,100,16.596186,-0.0102258725,0.43079140075821243,0.9823434,41.53233142197132,0.9652302,0.0,0.0,0.0,0.0,6.924608156085014,129.73514
0.280543,1,387560,119.66968325791855,137.48202117244352,221,400.0,0.000295768092,1410636,46.93353867530823,-4.1392115e-10,0.04185471,0.3524633,0.1999999,3,10,0,0.5,0.07,0.00029576826,1.25,100,16.58878,-0.013785887,0.3876976823212589,1.000915,39.66649831831455,0.9646321,0.0836017746322192,0.0,0.0,0.0,7.376205548644066,209.15862
0.29223743,1,396200,119.69406392694064,143.36683693387977,219,400.0,0.000295688751,1437083,47.609514474868774,-1.0956736e-10,0.047625232,0.40755722,0.1999999,3,10,0,0.5,0.07,0.00029568863,1.25,100,16.583462,-0.016827187,0.4272466231855884,0.9977233,40.69211457669735,0.964209,0.08447088775685888,-0.03239991076208546,0.0,0.0,7.204156965017319,168.28131
0.32568806,1,404840,119.77522935779817,151.52490810726079,218,400.0,0.00029561011199999996,1463296,46.98838257789612,-8.9550245e-10,0.064352676,0.43990386,0.1999999,3,10,0,0.5,0.07,0.00029561014,1.25,100,16.571093,-0.013960298,0.41748265827956965,0.99415046,39.75990656018257,0.96323645,0.16762765918614722,0.15076109347987826,0.0,0.6,6.924049988389015,147.32494
0.28959277,1,413480,119.8552036199095,141.68286239004559,221,400.0,0.000295531779,1489407,48.052924156188965,-2.9602754e-09,0.040665008,0.3979224,0.1999999,3,10,0,0.5,0.07,0.00029553188,1.25,100,16.55101,-0.014716882,0.41687032499393084,0.9856932,41.057295724749565,0.9616717,0.048839343986066486,-0.05163327239146989,0.0,0.0,7.2200672179460526,169.96571
0.34123224,1,422120,119.93838862559242,157.67859183609707,211,400.0,0.00029545231499999996,1515895,46.49587821960449,8.217552e-10,0.03694885,0.36233658,0.1999999,3,10,0,0.5,0.07,0.0002954525,1.25,100,16.548206,-0.019497542,0.42511189473225663,0.99236935,39.58352963626385,0.9614735,0.11121968610581884,0.2058715467774682,0.9,1.5,7.01408626139164,251.87395
0.30875576,1,430760,120.0,143.84274972945914,217,400.0,0.00029537639399999997,1541202,47.1533727645874,1.4974206e-09,0.046574686,0.3939951,0.1999999,3,10,0,0.5,0.07,0.0002953764,1.25,100,16.53159,-0.016593557,0.42962778620960584,0.9899681,40.176690474152565,0.96016055,-0.023637249791440794,0.03233280452866985,3.12,3.1,6.89912112057209,211.97002
0.30414745,1,439400,119.94009216589862,148.1434734669156,217,400.0,0.000295298274,1567242,48.08423352241516,1.3619833e-10,0.04480233,0.41346678,0.1999999,3,10,0,0.5,0.07,0.0002952982,1.25,100,16.52125,-0.018046744,0.40021901236440327,0.99385536,41.22732177376747,0.95937383,-0.05586371821553721,0.03860575893661431,0.0,0.0,6.970653682947159,222.82559
0.4040404,1,448040,119.14646464646465,186.6876065610625,198,400.0,0.000295220193,1593269,45.962867975234985,2.2589526e-09,0.03698688,0.33577126,0.19999991,3,10,0,0.5,0.07,0.00029522015,1.25,100,16.496925,-0.028909067,0.4328938978516009,0.9924023,39.58674490451813,0.957496,-0.03229504701729658,0.08486827299138394,0.0,0.0,6.859749808907509,178.87367
0.3301887,1,456680,119.73584905660377,155.88081090856804,212,400.0,0.00029514942,1616860,46.32694745063782,3.470189e-10,0.03713748,0.35508153,0.1999999,3,10,0,0.5,0.07,0.00029514934,1.25,100,16.470655,-0.034138955,0.43035578454857515,0.9990652,39.5204166918993,0.9554004,-0.10343850028545842,-0.05719567278794887,4.0,4.0,6.374372839927673,148.00908
0.3857868,1,465320,119.73604060913705,173.0886546474634,197,400.0,0.000295073268,1642244,45.28147625923157,1.1889224e-10,0.04976354,0.4143026,0.19999991,3,10,0,0.5,0.07,0.00029507308,1.25,100,16.44588,-0.017094614,0.4388721413798695,0.98569256,38.94000352919102,0.95339984,0.17276392690781195,0.15903866321917062,3.1,2.8333333333333335,6.803068712353706,212.45824
0.41,1,473960,119.92,173.3250251901335,200,400.0,0.000295002504,1665832,46.958043575286865,1.4179001e-09,0.05370687,0.38807625,0.19999991,3,10,0,0.5,0.07,0.00029500268,1.25,100,16.436329,-0.019685332,0.44218997939593996,0.99790144,40.607489228248596,0.9526699,0.0785742369104278,-0.04777124308121218,0.0,0.0,6.342390328645706,226.88574
0.365,1,482600,119.755,170.17984519003053,200,400.0,0.00029493055199999996,1689816,45.55884575843811,-1.1569671e-09,0.05708179,0.39626738,0.19999991,3,10,0,0.5,0.07,0.0002949305,1.25,100,16.43439,-0.0072842813,0.432761057492918,0.9915715,39.028685823082924,0.9525361,-0.15919179650845583,-0.06600661412410272,0.0,0.0,6.349075943231583,272.94244
0.3512195,1,491240,119.57073170731708,168.7693288035391,205,400.0,0.000294858699,1713767,45.33232259750366,-1.2021327e-09,0.045212537,0.39184394,0.19999991,3,10,0,0.5,0.07,0.00029485862,1.25,100,16.411892,-0.02146648,0.43279133134957454,0.99281853,38.977127969264984,0.95078117,0.0462341360830104,0.07936065964907943,0.0,2.5,6.53644871711731,253.85802
0.4041451,1,499880,119.83937823834196,179.8224018251128,193,400.0,0.000294785163,1738279,45.41905164718628,5.533946e-11,0.050170235,0.3825181,0.19999991,3,10,0,0.5,0.07,0.00029478507,1.25,100,16.383406,-0.026241625,0.4312560768944823,0.9871737,39.20021030306816,0.94854164,0.058494280507531145,0.1162128681238544,0.0,0.0,6.3487681448459625,232.2245
0.42639595,1,508520,119.92893401015229,183.28030620459597,197,400.0,0.00029471577599999996,1761408,45.39432716369629,-8.7610585e-10,0.049465347,0.3740736,0.19999991,3,10,0,0.5,0.07,0.00029471586,1.25,100,16.351873,-0.017947769,0.4417263591176007,0.9725995,39.150018468499184,0.9460822,0.0,0.0,0.0,0.0,6.232994839549065,275.13763
0.4105263,1,517160,119.88421052631578,192.48368658401685,190,400.0,0.000294644898,1785034,45.19006609916687,4.2709136e-10,0.043410745,0.36994952,0.19999991,3,10,0,0.5,0.07,0.00029464505,1.25,100,16.331495,-0.013065551,0.4426018170578764,0.995504,39.0056042522192,0.94452894,0.0,0.0,0.0,0.0,6.263961896300316,267.39856
0.41025642,1,525800,119.86666666666666,181.92515145885983,195,400.0,0.000294576564,1807812,45.4974160194397,1.6399376e-09,0.051958587,0.38111413,0.19999991,3,10,0,0.5,0.07,0.00029457646,1.25,100,16.336441,-0.01500644,0.4305079222948013,0.98788476,39.22306175529957,0.9449323,0.13881809470001424,0.07029926368614775,2.4,3.0857142857142854,6.160398855805397,173.82605
0.2672956,1,538640,116.9622641509434,138.59443651967553,318,400.0,0.000294506442,1831186,66.15684914588928,8.106528e-10,0.05712476,0.4304402,0.19999991,3,10,0,0.5,0.07,0.00029450652,1.25,100,16.309624,-0.01851651,0.44121467892169425,0.9825799,60.33298471570015,0.94288945,0.29732685716467006,0.035738551405586516,2.75,3.0,6.264146909117699,225.42825
0.4111675,1,547280,119.86802030456853,177.93056809410174,197,400.0,0.00029439485999999994,1868380,49.57533574104309,-5.4664584e-10,0.055209097,0.43399873,0.19999991,3,10,0,0.5,0.07,0.00029439482,1.25,100,16.289658,-0.019614436,0.41549774349747304,0.9942088,43.2338450551033,0.9413045,0.010481708937068849,-0.2684993986010979,2.0,2.35,6.011517152190208,159.09578
0.37313432,1,555920,119.32835820895522,171.09174681381697,201,400.0,0.000294324018,1891994,45.955130100250244,9.895302e-10,0.058182854,0.41229537,0.19999991,3,10,0,0.5,0.07,0.000294324,1.25,100,16.29938,-0.023010202,0.42680702545996335,0.9932034,39.4547089189291,0.9420852,0.16011754918439464,0.15465048543926402,2.9,3.085714285714286,6.1529828906059265,236.83057
0.3969072,1,564560,119.6340206185567,187.9996581027511,194,400.0,0.00029425206299999997,1915979,45.75706911087036,2.4829134e-09,0.058988124,0.43243578,0.19999991,3,10,0,0.5,0.07,0.0002942522,1.25,100,16.296078,-0.010279962,0.4293648484287934,0.98201436,39.542273968458176,0.9418236,0.25234151532980115,0.16404295331160212,2.542857142857143,2.8666666666666667,6.504663169384003,240.20102
0.41538462,1,573200,119.96923076923076,178.86750649836486,195,400.0,0.000294182436,1939188,45.51732015609741,2.409291e-09,0.053241324,0.41576087,0.19999991,3,10,0,0.5,0.07,0.00029418245,1.25,100,16.299877,-0.021829372,0.41920829110212204,1.0061805,39.31892408430576,0.9421348,0.0,0.0,0.0,0.0,6.211609929800034,298.7518
0.4631579,1,581840,119.64736842105263,199.0476884688752,190,400.0,0.000294112254,1962582,45.429415702819824,1.9040374e-09,0.042708788,0.34930557,0.19999991,3,10,0,0.5,0.07,0.00029411234,1.25,100,16.29792,-0.011858089,0.4147564045944,1.0013443,39.330873876810074,0.9420224,0.09146888042292942,0.20917375905128482,2.6999999999999997,2.5428571428571423,6.197779417037964,260.265
0.42708334,1,590480,119.58333333333333,194.14534634000267,192,400.0,0.000294044055,1985315,46.471344232559204,1.8074557e-09,0.048032664,0.4148148,0.19999991,3,10,0,0.5,0.07,0.00029404394,1.25,100,16.312983,-0.025652163,0.4244267831567476,1.0000324,40.3042524009943,0.9432529,0.14004228500329557,0.1491341675811338,2.685714285714286,3.4,6.20549339056015,135.42099
0.44324324,1,599120,119.91351351351351,200.94064301957363,185,400.0,0.000293975175,2008275,45.18256950378418,3.8946214e-11,0.052018013,0.36732957,0.19999991,3,10,0,0.5,0.07,0.00029397503,1.25,100,16.295322,-0.0064360974,0.41841347975486975,0.9817882,39.18369759619236,0.94181216,0.0,0.0,0.0,0.0,6.061239182949066,192.02676
0.37373737,1,607760,120.0,175.02844854773184,198,400.0,0.000293908623,2030459,45.60037660598755,1.4068916e-09,0.06460569,0.45478722,0.19999991,3,10,0,0.5,0.07,0.0002939086,1.25,100,16.279005,-0.011310503,0.41814241331318386,1.0023545,39.255594342947006,0.9405124,0.1384234881526581,0.1478805235467466,3.25,1.8399999999999999,6.003249913454056,167.17892
0.41145834,1,616400,120.0,187.92378131554992,192,400.0,0.00029383734299999996,2054219,45.57480072975159,-2.429537e-10,0.057761613,0.41711956,0.19999991,3,10,0,0.5,0.07,0.0002938372,1.25,100,16.265627,-0.017122824,0.4251444575759198,1.007613,39.34295326471329,0.9395305,0.1429981924269111,0.15748853095103307,2.4857142857142853,3.1999999999999997,6.337804540991783,140.96034
0.47894737,1,625040,119.68947368421053,197.66430376175174,190,400.0,0.000293768223,2077259,44.840277433395386,-4.656613e-10,0.053789042,0.4034091,0.19999991,3,10,0,0.5,0.07,0.00029376807,1.25,100,16.222017,-0.021693401,0.44559401358402867,1.0045327,38.92162662744522,0.93612444,0.14517641131703488,0.13708558193206383,1.7,2.2,6.233863845467567,201.55666
0.41326532,1,633680,119.95408163265306,181.93554338847255,196,400.0,0.0002937,2100000,45.30292725563049,2.770378e-09,0.0662534,0.42198583,0.19999991,3,10,0,0.5,0.07,0.0002937,1.25,100,16.208881,-0.009069742,0.41705840635834557,0.99239916,38.92210850119591,0.9351988,0.16344848132709924,0.15308322944823308,2.6,2.4666666666666663,5.913978844881058,182.47716
0.40932643,1,642320,119.82901554404145,189.3686152638448,193,400.0,0.000293629467,2123511,47.2434515953064,-4.859074e-10,0.05356664,0.39719203,0.19999991,3,10,0,0.5,0.07,0.00029362933,1.25,100,16.181795,-0.029256377,0.41871772048668376,0.99590045,41.00187586247921,0.93306166,-0.07789236219809091,-0.08355511073285245,3.4,3.1,6.404109314084053,114.43571
0.49726775,1,650960,119.91803278688525,202.7563090211382,183,400.0,0.000293560086,2146638,44.38357758522034,-1.3969839e-09,0.062134575,0.430161,0.19999991,3,10,0,0.5,0.07,0.00029356024,1.25,100,16.182734,-0.014118201,0.445289752797,0.9899395,38.38391847908497,0.93311936,0.1117462558728172,-0.06755882652518845,0.0,1.2,6.2775072157382965,298.64105
0.45454547,1,659600,119.93582887700535,194.97032694648016,187,400.0,0.00029349425099999997,2168583,45.5789532661438,1.7054088e-09,0.07193339,0.40269887,0.19999991,3,10,0,0.5,0.07,0.00029349423,1.25,100,16.16611,-0.022149079,0.4265154870791001,0.99139744,39.49944792687893,0.9319057,-0.25578331344667815,0.1373733580524479,3.3999999999999995,3.4571428571428577,6.044429957866669,205.20848
0.54189944,1,668240,119.88268156424581,227.02784709875132,179,400.0,0.000293426967,2191011,45.035534381866455,9.056764e-10,0.05527318,0.37450826,0.19999993,3,10,0,0.5,0.07,0.0002934271,1.25,100,16.14566,-0.032277558,0.4159710835576279,1.0007368,39.454918786883354,0.930302,-0.061496284974235725,-0.04811238517661688,2.95,2.6399999999999997,5.974898591637611,218.4839
0.41361257,1,676880,120.0,184.0817905583446,191,400.0,0.00029336259,2212470,46.388911485672,-1.2031993e-09,0.08257254,0.39489517,0.19999991,3,10,0,0.5,0.07,0.00029336268,1.25,100,16.128922,-0.028903313,0.39466028568853134,0.9820788,40.12286674976349,0.92903197,0.15514793348907702,0.2109904667851107,2.9333333333333336,2.32,5.5806399285793304,205.17546
0.49723756,1,685520,119.85082872928177,197.5036803390617,181,400.0,0.00029329382999999996,2235390,45.31375598907471,-8.869739e-11,0.061954666,0.43324336,0.19999991,3,10,0,0.5,0.07,0.0002932939,1.25,100,16.111595,-0.029023312,0.4216483330874416,0.9931063,39.46288627386093,0.9277752,-0.0368400396452012,-0.13788719451501752,2.1999999999999997,3.1,6.265218079090118,168.00636
0.5081081,1,694160,119.99459459459459,208.58545925096405,185,400.0,0.00029322875099999996,2257083,45.06981921195984,7.167987e-10,0.060216017,0.39043465,0.19999991,3,10,0,0.5,0.07,0.00029322875,1.25,100,16.106249,-0.03900151,0.40399444726117545,0.9792131,39.216014102101326,0.9274065,0.027073069656979868,0.0,0.0,0.0,5.8702472448349,153.08527
0.5141243,1,702800,119.85875706214689,214.3437178040478,177,400.0,0.00029316215399999995,2279282,44.270238637924194,-5.3218435e-10,0.050216544,0.38045636,0.19999993,3,10,0,0.5,0.07,0.000293162,1.25,100,16.104874,-0.015671203,0.43908172056350986,0.99876606,38.48984122276306,0.92718714,0.12704277776001632,0.14143986854946017,2.857142857142857,3.2857142857142856,5.900084495544434,279.3326
0.23364486,1,715640,118.03115264797508,134.50262376550958,321,400.0,0.00029309850899999996,2300497,65.43873691558838,5.380975e-10,0.06861482,0.37027118,0.19999991,3,10,0,0.5,0.07,0.00029309842,1.25,100,16.103243,-0.011588238,0.43154260323525817,0.99595314,59.35409572720528,0.92701775,0.08792449000760938,-0.13014242782983843,3.3200000000000003,3.4,5.713639542460442,152.92133
0.5568182,1,724280,120.0,232.19992078682824,176,400.0,0.00029298484499999997,2338385,44.5168719291687,1.7591649e-09,0.06977289,0.4325893,0.19999993,3,10,0,0.5,0.07,0.0002929848,1.25,100,16.09921,-0.028484449,0.41174193408829457,0.9946409,38.839721977710724,0.9267516,0.11570789646626878,0.18266275278825284,2.433333333333333,3.1666666666666665,6.084016069769859,225.04349
0.5139665,1,732920,119.92737430167598,218.9625560874885,179,400.0,0.000292921485,2359505,45.55098104476929,9.7379e-10,0.06035135,0.41489926,0.19999993,3,10,0,0.5,0.07,0.00029292147,1.25,100,16.077478,-0.026122175,0.40314316747088574,1.0027095,39.858825638890266,0.9250923,0.07232990362333336,0.11019358088082667,0.0,0.0,5.781248524785042,223.085
0.41269842,1,741560,119.84126984126983,186.9184156391823,189,400.0,0.000292857084,2380972,47.7313277721405,-3.7252904e-10,0.07102456,0.3771739,0.19999991,3,10,0,0.5,0.07,0.00029285715,1.25,100,16.058819,-0.019176586,0.4309211526237906,1.0050004,41.59875179827213,0.92372876,0.17949132571229653,0.1536625945748942,0.6,0.7,5.586371585726738,211.73036
0.5,1,750200,120.0,212.911289078125,178,400.0,0.00029278913399999996,2403622,44.88463258743286,1.8626451e-09,0.07300326,0.40395793,0.19999991,3,10,0,0.5,0.07,0.00029278916,1.25,100,16.052671,-0.0069302274,0.42480233879081747,0.9930549,39.1099997907877,0.9233544,-0.08691870728187535,-0.1184869279120687,0.5333333333333333,3.3,6.134455993771553,235.99913
0.5083799,1,758840,120.0,208.25342916987327,179,400.0,0.000292725054,2424982,45.126044511795044,1.6852504e-09,0.051003836,0.3313172,0.19999993,3,10,0,0.5,0.07,0.00029272496,1.25,100,16.05225,-0.015375841,0.43248767117599396,0.98730606,39.40067479014397,0.9233698,0.13508971394383468,0.13902235767611879,1.52,3.7600000000000002,5.785310059785843,195.19518
0.4864865,1,767480,119.88648648648649,201.93500041222845,185,400.0,0.00029266061399999997,2446462,45.435933351516724,8.1179885e-10,0.07064441,0.4015127,0.19999991,3,10,0,0.5,0.07,0.00029266064,1.25,100,16.033308,-0.012979323,0.44214556850399783,0.99293935,39.581111669540405,0.9219189,0.15771199482466594,0.14840074880915594,2.0333333333333337,2.4,5.722563341259956,241.5508
0.47567567,1,776120,119.86486486486487,211.75690216028227,185,400.0,0.00029259407699999993,2468641,44.73416090011597,2.0116566e-09,0.07320778,0.45002908,0.19999991,3,10,0,0.5,0.07,0.0002925939,1.25,100,16.03426,-0.01086329,0.4312151271649734,0.9975918,38.89083257317543,0.9220705,0.25731315655027553,0.02435759311161851,2.6,3.56,5.8443939089775085,206.94406
0.5928144,1,784760,119.80838323353294,245.95641336006162,167,400.0,0.00029252755199999996,2490816,44.190919637680054,-3.4289607e-09,0.06057415,0.41896304,0.19999991,3,10,0,0.5,0.07,0.00029252752,1.25,100,16.03047,-0.033156306,0.4367200597108237,0.98766744,38.79704275727272,0.92179453,0.11159465551102216,0.1257675552989927,1.6285714285714283,2.8666666666666667,5.846408396959305,162.2927
0.4787234,1,793400,119.7872340425532,199.27790292348402,188,400.0,0.000292467528,2510824,45.105263233184814,1.5239823e-10,0.06126622,0.35511363,0.19999991,3,10,0,0.5,0.07,0.00029246762,1.25,100,16.025188,-0.01615228,0.4397806475379492,0.9906727,39.17799709737301,0.92141366,0.15370597405622177,0.08163100648193408,0.0,0.5,5.391985684633255,174.53415
0.5083799,1,802040,120.0,216.2199545946918,179,400.0,0.00029239996799999997,2533344,44.92995285987854,-2.5094177e-10,0.068548344,0.42321575,0.19999991,3,10,0,0.5,0.07,0.00029239993,1.25,100,16.025572,-0.01654286,0.456135896682368,0.9967583,39.09958626329899,0.9215506,0.0,0.0,0.0,0.0,5.927949026226997,210.13106
0.5277778,1,810680,119.93333333333334,215.95479610648982,180,400.0,0.00029233552799999996,2554824,44.32651400566101,-4.188488e-10,0.067731395,0.42294973,0.19999993,3,10,0,0.5,0.07,0.0002923356,1.25,100,16.012882,-0.0070510646,0.4178712292184866,0.98768246,38.65408159792423,0.9206075,0.0,0.0,0.0,0.0,5.825605258345604,293.6266
0.547486,1,819320,119.80446927374301,224.98382503303372,179,400.0,0.00029227076399999995,2576412,43.79045796394348,-9.877665e-11,0.06355413,0.35842803,0.19999993,3,10,0,0.5,0.07,0.00029227068,1.25,100,16.000668,-0.025278753,0.4451962718682891,0.99667895,38.090740248560905,0.9197296,0.14427212346573798,0.15597823538208366,2.5714285714285716,3.257142857142857,5.673387378454208,228.90775
0.5,1,827960,119.88505747126437,226.73091983575816,174,400.0,0.00029220642899999995,2597857,43.76971912384033,-4.5218362e-09,0.05498404,0.39456302,0.19999993,3,10,0,0.5,0.07,0.00029220627,1.25,100,15.987326,-0.0219692,0.4329375841690909,0.99418014,38.23665501177311,0.9187664,0.17463944582936378,0.19082378679812623,1.9666666666666666,2.2800000000000002,5.698449268937111,147.56438
0.5542857,1,836600,119.34285714285714,232.44333786016708,175,400.0,0.00029214384899999994,2618717,45.42687654495239,3.000928e-10,0.06745722,0.3815476,0.19999993,3,10,0,0.5,0.07,0.0002921438,1.25,100,15.952756,-0.019680563,0.43582703900420416,0.98762685,39.75049169361591,0.91622496,0.1081726091420183,0.17212362018310462,2.914285714285714,3.1333333333333333,5.537276744842529,272.0288
0.51955307,1,845240,119.77653631284916,215.00745547271538,179,400.0,0.000292081194,2639602,45.4588086605072,4.0842055e-10,0.059174016,0.37873757,0.19999991,3,10,0,0.5,0.07,0.00029208133,1.25,100,15.958732,-0.031268694,0.43724592689797853,0.9955076,39.528938382864,0.91663957,0.10332707319235514,0.0,0.0,0.0,5.6719485223293304,207.60541
0.45901638,1,853880,119.8415300546448,210.13110129901688,183,400.0,0.00029201687399999995,2661042,46.343618392944336,-1.7713021e-09,0.058909245,0.38191986,0.19999991,3,10,0,0.5,0.07,0.00029201692,1.25,100,15.951172,-0.041425887,0.3959838900091527,0.994776,40.469588339328766,0.91610646,0.0,-0.08719904542155155,0.0,0.0,5.932283580303192,203.16216
0.51111114,1,862520,119.72777777777777,214.52307698831063,180,400.0,0.000291951081,2682973,44.57750916481018,-7.797119e-10,0.0724465,0.4014441,0.19999991,3,10,0,0.5,0.07,0.00029195103,1.25,100,15.95194,-0.014570089,0.45391056680875624,0.99077827,38.70370365679264,0.9161323,0.15315758823865488,-0.19545491324659076,2.5,2.9333333333333336,5.893639713525772,322.55118
0.5635359,1,871160,119.78453038674033,227.32503372247012,181,400.0,0.00029188642799999996,2704524,44.110403537750244,-1.4537718e-09,0.077481486,0.40350613,0.19999993,3,10,0,0.5,0.07,0.00029188648,1.25,100,15.94039,-0.008630399,0.44067872376244754,0.9909124,38.55849067866802,0.9153139,0.0,-0.0324741998072995,0.0,0.0,5.850517138838768,225.05121
0.5,1,879800,120.0,222.65128394724644,178,400.0,0.000291821385,2726205,44.63317155838013,-1.0546827e-10,0.08052452,0.450929,0.19999991,3,10,0,0.5,0.07,0.0002918215,1.25,100,15.936948,-0.020159584,0.4428298348131496,0.98763126,38.820501774549484,0.9150372,0.16439697788860863,0.1323929310411479,2.44,3.6799999999999997,5.554515972733498,176.6634
0.28104576,1,892640,117.33660130718954,146.33501881383356,306,400.0,0.000291757305,2747565,65.26331186294556,-3.180126e-10,0.07192317,0.43460366,0.19999993,3,10,0,0.5,0.07,0.00029175731,1.25,100,15.921206,-0.012176965,0.4079724129062761,0.99947125,59.312628984451294,0.9138392,0.12484296779927703,0.20680468093478388,2.7428571428571433,3.766666666666667,5.824947565793991,127.42463
0.505618,1,901280,119.7247191011236,215.0573866504643,178,400.0,0.00029164958999999997,2783470,45.488576889038086,-1.7976691e-09,0.072199255,0.4324128,0.19999991,3,10,0,0.5,0.07,0.0002916495,1.25,100,15.928662,-0.018412871,0.44180775591773297,0.9827525,38.68348842859268,0.91454476,-0.10251454989893813,-0.07446112464312524,3.08,2.92,5.935369595885277,154.4286
0.52459013,1,909920,119.8415300546448,223.44168745070803,183,400.0,0.000291585657,2804781,49.21169638633728,2.6856743e-09,0.07195566,0.38793603,0.19999991,3,10,0,0.5,0.07,0.00029158572,1.25,100,15.938813,-0.014368503,0.40179904047576365,1.0017518,39.16222773492336,0.91537416,0.0,0.0,0.0,0.0,6.806588128209114,410.87463
0.6227545,1,918560,120.0,248.24919538468296,167,400.0,0.000291519864,2826712,46.110323667526245,-7.1735723e-10,0.0703964,0.37083334,0.19999991,3,10,0,0.5,0.07,0.00029151983,1.25,100,15.926946,-0.01856428,0.44649893566051463,1.0052276,40.33246687054634,0.9144968,0.2583672451247291,0.009776519871358047,2.142857142857143,2.9000000000000004,10.477346301078796,213.18796
0.5344828,1,927200,119.97126436781609,228.76833807717492,174,400.0,0.000291459744,2846752,46.394742012023926,2.3808247e-10,0.07181954,0.4262218,0.19999993,3,10,0,0.5,0.07,0.0002914599,1.25,100,15.899239,-0.012482413,0.4553686797426978,0.9851865,40.55168056488037,0.9124985,-0.022907079989530062,-0.0309555860404729,2.5,3.0666666666666664,5.349047631025314,225.85379
0.5595238,1,935840,119.85714285714286,238.99081608352793,168,400.0,0.000291397119,2867627,44.52308464050293,-3.411438e-09,0.06415783,0.37190935,0.19999991,3,10,0,0.5,0.07,0.0002913971,1.25,100,15.896026,-0.031894613,0.4424669516016772,0.972921,39.223216101527214,0.9122735,0.158780212891387,0.1751663656976159,3.233333333333333,2.9,5.840112432837486,181.112
0.57894737,1,944480,119.05263157894737,231.4610922463557,171,400.0,0.000291336711,2887763,51.133965730667114,9.978456e-10,0.056203295,0.37544644,0.19999991,3,10,0,0.5,0.07,0.00029133662,1.25,100,15.880033,-0.03229936,0.4168648382315154,0.9981116,39.173102870583534,0.9110137,0.14871399601959198,-0.012066364876383701,0.0,0.0,5.303832679986954,214.18367
0.54444444,1,953120,119.81666666666666,225.03986218167475,180,400.0,0.00029127563699999997,2908121,57.79467177391052,-8.2302926e-10,0.07165169,0.37718022,0.19999991,3,10,0,0.5,0.07,0.00029127573,1.25,100,15.87228,-0.032359686,0.40325649867406393,0.99528563,41.57739372551441,0.91037077,-0.15352539833817885,-0.012795265486785806,1.5,2.1999999999999997,11.987343028187752,221.88629
0.5277778,1,961760,119.95555555555555,217.47869271072244,180,400.0,0.00029121093599999997,2929688,58.55744504928589,-2.7939677e-09,0.06542866,0.36755952,0.19999993,3,10,0,0.5,0.07,0.00029121086,1.25,100,15.857903,-0.029120326,0.43276567884831135,0.98676,47.69205558300018,0.9093299,0.1006909273525851,0.16708343220563687,3.3333333333333335,3.742857142857143,16.187852635979652,172.06668
0.5780347,1,970400,119.95953757225433,228.9627396367721,173,400.0,0.00029114615999999995,2951280,74.80686235427856,-4.5612092e-10,0.07420897,0.33795732,0.19999993,3,10,0,0.5,0.07,0.00029114628,1.25,100,15.83983,-0.015186258,0.43343782379266244,0.9956226,68.55855192244053,0.9079877,0.13950620007630316,0.19683539731556082,1.8,2.3666666666666667,10.862300053238869,203.89429
0.5224719,1,979040,119.78089887640449,216.55707061274782,178,400.0,0.000291083901,2972033,53.29640769958496,2.287155e-09,0.067368,0.37848836,0.19999991,3,10,0,0.5,0.07,0.0002910839,1.25,100,15.836846,-0.033697005,0.43807795420920426,0.9850883,40.731954380869865,0.9078591,0.1365700178126746,0.11535024495240845,2.9000000000000004,3.028571428571429,6.248498171567917,240.73471
0.55172414,1,987680,119.86781609195403,229.62741722974687,174,400.0,0.00029101993799999994,2993354,96.67100858688354,3.6344294e-10,0.06111488,0.38392857,0.19999993,3,10,0,0.5,0.07,0.0002910199,1.25,100,15.850472,-0.01759681,0.419915725250282,0.9924483,80.06874942779541,0.9090039,0.1395277355357313,0.11310474662259094,2.433333333333333,2.314285714285714,12.563588008284569,232.28128
0.5588235,1,996320,119.78823529411764,233.26048496496523,170,400.0,0.000290957367,3014211,50.392332315444946,1.3814963e-09,0.08900828,0.3968958,0.19999993,3,10,0,0.5,0.07,0.0002909573,1.25,100,15.831981,-0.014514202,0.416373623531513,0.97844315,43.652623787522316,0.907688,0.06822750520391824,0.0,0.0,0.0,16.604419946670532,188.22409
0.61988306,1,1004960,120.0,246.28918902086693,171,400.0,0.000290896275,3034575,44.891024112701416,-2.0651066e-10,0.04797108,0.34762228,0.19999991,3,10,0,0.5,0.07,0.00029089642,1.25,100,15.844271,-0.017813852,0.4225620809471665,0.98381156,38.36211670935154,0.9085593,0.16218891607523275,0.19961092825353158,2.16,3.0,6.736002877354622,276.67352
0.60818714,1,1013600,119.58479532163743,230.46829548401087,171,400.0,0.000290834715,3055095,44.918237924575806,3.906381e-10,0.06273974,0.38411456,0.19999991,3,10,0,0.5,0.07,0.00029083464,1.25,100,15.832967,-0.019934345,0.4452873445074198,0.98407745,39.310128808021545,0.90774965,0.0,0.0,0.0,0.0,6.532418519258499,243.52617
0.505618,1,1022240,120.0,220.2695117910434,178,400.0,0.00029077336799999997,3075544,68.85998344421387,1.9382022e-10,0.067327246,0.40390763,0.19999993,3,10,0,0.5,0.07,0.00029077352,1.25,100,15.822857,-0.008159587,0.3931320941571272,0.9898141,38.6348911523819,0.90715706,0.1173786073369305,-0.0715267300633187,2.6,2.2666666666666666,5.616302907466888,323.76782
0.51123595,1,1030880,119.92696629213484,225.0802116232493,178,400.0,0.000290709288,3096904,69.73851680755615,2.0203293e-10,0.063735306,0.36292988,0.19999993,3,10,0,0.5,0.07,0.00029070931,1.25,100,15.8083725,-0.028598428,0.4335248913529696,0.9867075,49.46572057902813,0.9061905,-0.07172963965446444,-0.07049201914035738,2.8,2.85,30.229225769639015,259.77295
0.58928573,1,1039520,119.99404761904762,248.11231381307985,168,400.0,0.00029064524699999995,3118251,56.37288546562195,-8.0714624e-10,0.07718413,0.38793403,0.19999991,3,10,0,0.5,0.07,0.00029064526,1.25,100,15.793032,-0.027768677,0.4296636727648395,1.0025,49.86151868104935,0.9051601,0.03509369981439936,0.0526169382966785,1.8399999999999999,2.75,20.264598697423935,228.36539
0.53072625,1,1048160,119.98324022346368,220.0407755337145,179,400.0,0.00029058476999999994,3138410,64.43228077888489,-3.0012721e-09,0.081025995,0.39192274,0.19999991,3,10,0,0.5,0.07,0.00029058478,1.25,100,15.785859,-0.019366704,0.4540413360676691,0.97815776,48.149981051683426,0.90459865,0.13491394944197144,0.22629284594339727,1.7600000000000002,2.266666666666667,6.505600228905678,215.05289
0.51704544,1,1056800,119.95454545454545,218.04633342259012,176,400.0,0.00029052033899999995,3159887,53.022112131118774,1.7074248e-09,0.08933889,0.42674515,0.19999993,3,10,0,0.5,0.07,0.00029052043,1.25,100,15.765009,-0.01456447,0.4297747317529724,0.9948595,42.671843871474266,0.90303004,0.1261422605579599,0.18553926541026036,3.3,2.966666666666667,16.279225274920464,161.70528
0.269103,1,1069640,117.67109634551495,153.05965690632257,301,400.0,0.000290457003,3180999,95.61652207374573,3.127124e-09,0.062068485,0.36559957,0.19999993,3,10,0,0.5,0.07,0.0002904571,1.25,100,15.747468,-0.022689018,0.4536848957605021,0.983351,82.40767942368984,0.9015397,0.15515633365073261,0.13348718738873097,0.0,0.7,10.350304558873177,198.997
0.591716,1,1078280,119.94082840236686,250.28824526849723,169,400.0,0.000290350746,3216418,81.79173970222473,-1.112413e-09,0.10262644,0.38645834,0.19999991,3,10,0,0.5,0.07,0.0002903509,1.25,100,15.717893,-0.03184045,0.41879455888208844,0.9786569,40.431864872574806,0.899243,-0.02620010131800818,0.05676466210316751,2.8333333333333335,3.2,13.207234263420105,266.41663
0.5568182,1,1086920,119.98295454545455,226.8586731926911,176,400.0,0.000290289936,3236688,70.84230899810791,-7.041707e-10,0.057781965,0.375,0.19999993,3,10,0,0.5,0.07,0.0002902898,1.25,100,15.700821,-0.033382535,0.44218642479192677,0.9996786,56.080724477767944,0.8979409,-0.11178597615695982,-0.08834400018048556,1.5333333333333332,2.466666666666667,41.370242953300476,236.52225
0.5903614,1,1095560,119.94578313253012,247.0710176479612,166,400.0,0.000290226585,3257805,53.19252419471741,3.3594136e-10,0.0896832,0.42098212,0.19999991,3,10,0,0.5,0.07,0.00029022648,1.25,100,15.706212,-0.016030317,0.444785469983246,0.97463024,38.705933183431625,0.89833564,0.08785476981888715,0.12390203190775029,0.4,0.0,14.754621058702469,228.76315
0.56725144,1,1104200,120.0,242.89776682211178,171,400.0,0.00029016685199999997,3277716,51.63438391685486,-1.4638675e-10,0.08150126,0.4613821,0.19999993,3,10,0,0.5,0.07,0.00029016682,1.25,100,15.69649,-0.022996051,0.44103575069534073,0.9995466,40.92502582073212,0.89757454,0.2802005589624434,-0.049660924107631524,3.65,2.2800000000000002,14.483728632330894,275.47568
0.57471263,1,1112840,120.0,227.84581877631237,174,400.0,0.000290105292,3298236,52.20128774642944,-1.1357593e-09,0.068938114,0.42835367,0.19999993,3,10,0,0.5,0.07,0.00029010518,1.25,100,15.682137,-0.017984325,0.4099453689967503,0.99072814,41.77915669977665,0.8966162,0.0,0.0,0.0,0.0,10.734880819916725,194.50941
0.5813953,1,1121480,119.76162790697674,236.53194882034012,172,400.0,0.00029004265199999996,3319116,49.12401747703552,8.5867946e-10,0.08298256,0.3765,0.19999991,3,10,0,0.5,0.07,0.0002900427,1.25,100,15.684154,-0.01487408,0.43408783352259983,0.999187,38.8872387111187,0.8967134,-0.007774430356739158,-0.06761876907981511,2.6500000000000004,2.3499999999999996,10.39299176633358,219.21143
0.5964912,1,1130120,120.0,237.1087253692055,171,400.0,0.00028998085499999996,3339715,59.39504384994507,-1.5280776e-09,0.06276797,0.340591,0.19999991,3,10,0,0.5,0.07,0.00028998096,1.25,100,15.675011,-0.023125302,0.42868460508743783,0.9958223,38.48045778274536,0.8960783,0.1557950142610506,0.1896745304647395,1.32,2.433333333333333,10.237216711044312,176.06424
0.505618,1,1138760,119.79775280898876,221.27695163425764,178,400.0,0.000289919295,3360235,66.94788765907288,-1.6850442e-09,0.08759091,0.41526166,0.19999991,3,10,0,0.5,0.07,0.00028991915,1.25,100,15.636245,-0.017346097,0.40101119015689946,0.97967345,39.41799467802048,0.89324284,-0.07397165766801915,-0.08318380605306584,2.5,2.5,20.83656731247902,232.55432
0.55813956,1,1147400,119.72674418604652,232.0268909896012,172,400.0,0.00028985532299999995,3381559,61.20249271392822,1.3504178e-09,0.09665288,0.4593149,0.19999991,3,10,0,0.5,0.07,0.00028985547,1.25,100,15.630994,-0.009250507,0.41912505677346223,0.98870933,45.296638280153275,0.8928877,0.13520246639519748,0.17193722106477388,2.9200000000000004,2.6666666666666665,27.52974124252796,213.84465
0.5872093,1,1156040,119.84302325581395,240.51724912950155,172,400.0,0.000289793544,3402152,55.72697353363037,-2.02097e-09,0.07657152,0.34728125,0.19999991,3,10,0,0.5,0.07,0.00028979342,1.25,100,15.601629,-0.026517589,0.4496120613467074,0.98049945,39.461646258831024,0.89052564,0.15965332282762335,0.15285174486331712,1.9333333333333333,2.9000000000000004,15.904100939631462,205.3896
0.5595238,1,1164680,119.88095238095238,239.16996308175172,168,400.0,0.00028973170499999994,3422765,50.60559821128845,-5.432715e-10,0.068557344,0.34583333,0.19999991,3,10,0,0.5,0.07,0.0002897317,1.25,100,15.591684,-0.02147247,0.4509813620268834,0.9817306,39.98743462562561,0.8898159,0.2686844467031183,0.18435801156887774,2.1,1.8,16.265103474259377,168.41081
0.5632184,1,1173320,119.75287356321839,232.65945084255793,174,400.0,0.00028967128499999997,3442905,83.81245374679565,-8.3457274e-10,0.09185008,0.375367,0.19999993,3,10,0,0.5,0.07,0.00028967118,1.25,100,15.565513,-0.021629151,0.43022292835446496,0.99270344,38.844167590141296,0.8879025,0.0,-0.07520534084183886,0.0,0.0,10.680860713124275,200.38196
0.57988167,1,1181960,119.46153846153847,243.69764292668188,169,400.0,0.00028960877399999995,3463742,81.44168043136597,1.166604e-09,0.08644115,0.4084704,0.19999991,3,10,0,0.5,0.07,0.00028960875,1.25,100,15.536768,-0.027057463,0.42848698870963203,1.0002543,66.0091749727726,0.8856694,0.0,0.0,0.0,0.0,44.91000923514366,228.7406
0.55172414,1,1190600,119.91379310344827,232.92932511153836,174,400.0,0.00028954820699999997,3483931,57.955894231796265,-2.5441007e-09,0.07315245,0.39481708,0.19999993,3,10,0,0.5,0.07,0.00028954822,1.25,100,15.522777,-0.024540601,0.39248333131987206,0.9985955,40.17182743549347,0.88466847,-0.037980890403587944,0.035875942677419795,2.4,3.12,15.434098660945892,182.7288
0.63414633,1,1199240,119.03658536585365,254.61029045925358,164,400.0,0.00028948561199999996,3504796,53.83027172088623,2.5585786e-10,0.07365535,0.38717186,0.19999991,3,10,0,0.5,0.07,0.00028948573,1.25,100,15.513613,-0.025107583,0.4465261375486783,0.9941138,38.93342085182667,0.8838776,0.022556698544050326,0.11793699950002874,0.0,0.0,17.78312821686268,223.45876
0.57954544,1,1207880,119.92613636363636,236.0131323285027,176,400.0,0.00028942704599999996,3524318,54.553977251052856,-1.2779123e-09,0.059768643,0.4135523,0.19999993,3,10,0,0.5,0.07,0.0002894271,1.25,100,15.490117,-0.031888526,0.4201720660689256,1.0036095,39.34028919041157,0.88225186,0.13579656068238266,0.1599528465409956,2.5,3.0,14.892734974622726,182.52135
0.5739645,1,1216520,119.98816568047337,240.3735296262187,169,400.0,0.000289363725,3545425,51.57080960273743,-7.692035e-10,0.09980287,0.4236111,0.19999991,3,10,0,0.5,0.07,0.00028936376,1.25,100,15.477463,-0.023337565,0.4111713268987517,0.9819788,39.10137973725796,0.8813146,0.0,0.0,0.0,0.0,15.207447990775108,144.73001
0.5113636,1,1225160,119.92045454545455,227.86784962028972,176,400.0,0.000289302891,3565703,74.48459434509277,2.713867e-09,0.09406629,0.3997513,0.19999993,3,10,0,0.5,0.07,0.00028930296,1.25,100,15.48067,-0.012388831,0.4566966934274827,0.98821837,38.69286984205246,0.8816504,0.0,0.0,0.0,0.0,12.472200855612755,221.75574
0.50574714,1,1233800,119.72988505747126,230.4210463231506,174,400.0,0.000289239573,3586809,81.96404361724854,7.3986606e-10,0.08419813,0.3648737,0.19999993,3,10,0,0.5,0.07,0.00028923963,1.25,100,15.479396,-0.02895022,0.42318142001292225,0.99292046,61.24134121835232,0.88167816,0.16142076091501276,0.12088652111992998,2.314285714285714,3.0,35.84996297955513,224.18715
0.28716215,1,1246640,117.03378378378379,159.98989222847766,296,400.0,0.000289177074,3607642,82.820725440979,2.390816e-09,0.0682653,0.3542138,0.19999991,3,10,0,0.5,0.07,0.0002891772,1.25,100,15.473054,-0.025140366,0.4325485140361602,0.99466676,63.09756423532963,0.8812523,-0.01489097943736829,0.13504051148246446,0.0,2.5,20.734582394361496,196.311
0.5529412,1,1255280,119.9235294117647,243.08910157483538,170,400.0,0.000289073148,3642284,54.75118565559387,2.6516989e-09,0.06821087,0.38775674,0.19999993,3,10,0,0.5,0.07,0.00028907318,1.25,100,15.46624,-0.028463872,0.44008990103939505,0.9913144,39.010072976350784,0.88075525,0.15814784242307048,0.14513174539084503,2.675,3.3666666666666667,19.670832693576813,222.95436
0.545977,1,1263920,119.97701149425288,227.5497714782573,174,400.0,0.000289011987,3662671,65.41871118545532,8.8216945e-10,0.08034768,0.409375,0.19999991,3,10,0,0.5,0.07,0.00028901183,1.25,100,15.461729,-0.02725621,0.43181061425981576,0.9817586,40.824009388685226,0.880509,0.15191477843364085,-0.11991507583349387,0.0,0.0,15.746483504772186,181.99684
0.54913294,1,1272560,119.80346820809248,234.1275582543664,173,400.0,0.00028894935899999996,3683547,69.44921898841858,-8.1774665e-10,0.09994548,0.40063748,0.19999993,3,10,0,0.5,0.07,0.00028894935,1.25,100,15.4683275,-0.026467105,0.4344478370975445,0.9867564,44.131316781044006,0.88116187,0.020364932291949796,0.09538755741925772,0.0,0.0,24.583867385983467,159.85672
0.48618785,1,1281200,119.87845303867404,211.42832082807914,181,400.0,0.00028888718099999997,3704273,75.79627776145935,-2.59904e-10,0.088312544,0.36555234,0.19999991,3,10,0,0.5,0.07,0.00028888704,1.25,100,15.478614,-0.03289301,0.40400028917119035,0.98138535,43.95491187274456,0.8820423,0.13650949694070946,0.12472263546173777,2.233333333333334,3.142857142857143,25.318254962563515,213.35156
0.5738636,1,1289840,119.83522727272727,239.01340059311943,176,400.0,0.00028882208699999997,3725971,101.33626985549927,-1.0027131e-09,0.08763859,0.37369338,0.19999993,3,10,0,0.5,0.07,0.00028882202,1.25,100,15.473012,-0.01543136,0.4525678545135662,0.99598175,80.76175005733967,0.88170445,0.0,0.0,0.0,0.0,32.10293219983578,269.8545
0.5202312,1,1298480,120.0,229.33178706030435,173,400.0,0.00028875881399999996,3747062,60.6969792842865,-3.186283e-09,0.08698021,0.36114925,0.19999993,3,10,0,0.5,0.07,0.00028875872,1.25,100,15.442409,-0.022374287,0.4468346439129511,0.9837842,41.911917582154274,0.8795285,0.10784413067704265,0.0,0.0,0.0,20.277398198843002,185.959
0.5574713,1,1307120,118.95402298850574,231.39504581155123,174,400.0,0.000288696534,3767822,64.07532691955566,1.2805685e-09,0.12915698,0.4471933,0.19999991,3,10,0,0.5,0.07,0.00028869667,1.25,100,15.412155,-0.008147492,0.43848841233345437,0.97587824,53.10766939818859,0.87736624,0.30753041220962096,-0.0490564646741095,3.96,3.5200000000000005,18.75923866033554,141.04697
0.54285717,1,1315760,119.6,223.96927678940705,175,400.0,0.00028863444,3788520,119.87722635269165,2.4983098e-09,0.0977028,0.44568452,0.19999993,3,10,0,0.5,0.07,0.00028863453,1.25,100,15.401744,-0.023719754,0.4279810711042251,1.0023222,83.11590726673603,0.87678474,0.18316980691641674,0.06150676430218514,2.0749999999999997,3.2750000000000004,11.156704753637314,182.33505
0.54385966,1,1324400,119.71345029239767,238.05630710960156,171,400.0,0.00028857164999999995,3809450,85.22039818763733,1.2529218e-09,0.06781431,0.3801749,0.19999993,3,10,0,0.5,0.07,0.00028857152,1.25,100,15.396042,-0.03393709,0.41594031744472204,0.9899849,67.85456939041615,0.8764041,-0.10143626270120264,-0.07149866315376227,3.3333333333333335,2.5,36.59234519302845,233.95522
0.55813956,1,1333040,119.97093023255815,239.27931145093055,172,400.0,0.000288510237,3829921,65.40884971618652,1.275025e-10,0.08356334,0.42127976,0.19999991,3,10,0,0.5,0.07,0.00028851037,1.25,100,15.390722,-0.010333467,0.44591785830480946,0.9783018,42.44826592504978,0.87609565,0.2633682017176359,0.015392583759252874,2.6799999999999997,3.233333333333333,17.33789685368538,289.60706
0.6385542,1,1341680,120.0,259.3746086378619,166,400.0,0.00028844833199999993,3850556,57.64182949066162,1.432804e-09,0.12297281,0.42855936,0.19999991,3,10,0,0.5,0.07,0.00028844833,1.25,100,15.371743,-0.022138694,0.4227195637580804,0.9847284,42.86329637467861,0.874808,0.0,0.0,0.0,0.0,22.946002319455147,230.93
0.48603353,1,1350320,119.93854748603351,217.40219425996378,179,400.0,0.000288388572,3870476,85.24924492835999,-1.8770842e-10,0.089905374,0.4108527,0.19999991,3,10,0,0.5,0.07,0.00028838866,1.25,100,15.355925,-0.016164897,0.4245956770190798,0.98480564,56.8983516395092,0.8736837,0.09036087181892234,0.0,0.0,0.0,14.760526478290558,217.20242
0.48369566,1,1358960,119.8586956521739,218.57064040880746,184,400.0,0.000288324165,3891945,100.21311616897583,-2.5722244e-10,0.1050861,0.37703374,0.19999993,3,10,0,0.5,0.07,0.0002883242,1.25,100,15.33852,-0.023545733,0.411374594929337,0.98077947,78.26678152382374,0.8724454,0.0,0.0,0.0,0.0,28.34228041768074,158.55254
0.56213015,1,1367600,119.6923076923077,234.35484439456556,169,400.0,0.000288258003,3913999,95.25893092155457,1.8961201e-09,0.08939531,0.42518452,0.19999993,3,10,0,0.5,0.07,0.00028825804,1.25,100,15.332554,-0.025663836,0.4155763620101848,0.98407525,70.60218678414822,0.87206364,0.13900658427614743,0.13345089011137323,2.9428571428571426,3.2,21.955903336405754,156.50185
0.53757226,1,1376240,119.9364161849711,234.00720889814988,173,400.0,0.000288197319,3934227,81.39473414421082,-1.9324944e-09,0.1027597,0.36808035,0.19999991,3,10,0,0.5,0.07,0.00028819745,1.25,100,15.314769,-0.03680157,0.4371349811337771,1.0031538,45.93757663667202,0.8707053,0.12581857149981718,0.1367156346053202,1.7333333333333334,2.4333333333333336,24.64653144776821,213.81673
0.50555557,1,1384880,120.0,230.30419205720156,180,400.0,0.000288135072,3954976,104.54273128509521,-1.8889258e-10,0.10934045,0.4143243,0.19999993,3,10,0,0.5,0.07,0.00028813514,1.25,100,15.323864,-0.017618097,0.44524437564764696,0.9858856,78.47811497747898,0.87133914,0.0,0.0,0.0,0.0,35.4249926507473,151.86075
0.5086705,1,1393520,119.41040462427746,221.55043225447912,173,400.0,0.00028807027199999997,3976576,139.03716778755188,-7.950315e-10,0.08390254,0.3925305,0.19999993,3,10,0,0.5,0.07,0.0002880702,1.25,100,15.320525,-0.014913043,0.4328974731459728,0.97307885,117.20345175266266,0.8711763,0.15982569338435987,0.15058203222817107,0.6,0.5,26.05442203581333,141.59898
0.6023392,1,1402160,119.96491228070175,249.24963077868057,171,400.0,0.00028800829799999997,3997234,59.959569692611694,-7.7231627e-10,0.07004538,0.41310975,0.19999993,3,10,0,0.5,0.07,0.00028800842,1.25,100,15.318846,-0.01744315,0.40633441472527154,0.9952256,43.31648741662502,0.87109786,0.0,0.0,0.0,0.0,21.85035878419876,133.70477
0.5116279,1,1410800,119.91279069767442,229.30532155880084,172,400.0,0.000287946756,4017748,112.90195608139038,7.335668e-10,0.12537828,0.3951309,0.19999993,3,10,0,0.5,0.07,0.0002879466,1.25,100,15.310192,-0.021366678,0.4383010812764329,0.99666286,80.35765127837658,0.870493,0.2108953205472486,-0.08720584580804577,1.9,1.5,16.60287770628929,153.83888
0.28093645,1,1423640,118.11371237458194,157.6971585142816,299,400.0,0.000287884881,4038373,93.89060926437378,-9.313226e-11,0.09803574,0.36453125,0.19999991,3,10,0,0.5,0.07,0.00028788488,1.25,100,15.289156,-0.021703593,0.43406369949971213,0.98560095,73.8255902826786,0.86889726,-0.2655333285102799,0.1903330004358143,1.4500000000000002,2.7199999999999998,32.54206420481205,257.29605
0.5833333,1,1432280,120.0,245.92480457389917,168,400.0,0.000287778933,4073689,92.4121823310852,-2.7763003e-10,0.11526288,0.36517614,0.19999993,3,10,0,0.5,0.07,0.00028777894,1.25,100,15.267636,-0.037424956,0.4231626489674175,0.99712586,44.49259316921234,0.86727536,-0.29617771262951503,0.09645164668633281,2.7600000000000002,3.7600000000000002,20.044396966695786,106.90315
0.5371429,1,1440920,119.98857142857143,228.43981782035877,175,400.0,0.00028771845299999994,4093849,148.57906222343445,-2.0897972e-10,0.11437364,0.39908534,0.19999993,3,10,0,0.5,0.07,0.0002877184,1.25,100,15.255794,-0.012704323,0.44292461119306453,0.98809004,127.80457790195942,0.8662721,0.14434396370403388,0.14684929078658232,1.3666666666666665,3.3600000000000003,47.94251070916653,319.39594
0.5502958,1,1449560,120.0,234.80294221949632,169,400.0,0.00028765545899999995,4114847,118.37948155403137,7.4505807e-10,0.11464654,0.3592403,0.19999991,3,10,0,0.5,0.07,0.00028765548,1.25,100,15.253433,-0.02042897,0.4318273891224199,0.98970586,104.25230558216572,0.8661129,0.14745435055348097,0.15510957734878297,2.6,3.1666666666666665,20.750047847628593,188.72908
0.53107345,1,1458200,119.51977401129943,234.74622856001287,177,400.0,0.000287594619,4135127,60.90145921707153,4.845906e-10,0.09602743,0.41082317,0.19999993,3,10,0,0.5,0.07,0.00028759456,1.25,100,15.21992,-0.031051595,0.41638868262041884,0.99298793,42.19814844429493,0.86370075,0.13409604675583608,0.05046599224763527,0.0,0.0,14.123538345098495,186.66405
0.51955307,1,1466840,119.6536312849162,219.00363876550378,179,400.0,0.000287531154,4156282,109.59403681755066,1.1877737e-09,0.11323689,0.41614905,0.19999993,3,10,0,0.5,0.07,0.000287531,1.25,100,15.2402725,-0.035426516,0.4405693516595397,1.0023602,50.99447666108608,0.86514235,0.10505182717127082,-0.019804189302662114,0.0,0.0,18.707526803016663,221.22421
0.6196319,1,1475480,119.6319018404908,254.05517290762526,163,400.0,0.0002874669,4177700,207.46899127960205,-3.9932777e-09,0.12938718,0.40295583,0.19999991,3,10,0,0.5,0.07,0.00028746674,1.25,100,15.242759,-0.038217347,0.42300997417843583,1.007108,189.58328340947628,0.86534375,0.0,0.0,0.0,0.0,58.99837666749954,177.27327
0.48876405,1,1484120,119.90449438202248,214.52549620193784,178,400.0,0.0002874084,4197200,94.18322324752808,7.716673e-10,0.11293012,0.359375,0.19999993,3,10,0,0.5,0.07,0.0002874083,1.25,100,15.221529,-0.03476819,0.4395677621127997,0.99159986,79.76166899502277,0.86383766,0.1486864300534398,0.15369012563492918,3.0,3.542857142857143,17.464211881160736,214.35452
0.57058823,1,1492760,119.87058823529412,237.31403019582453,170,400.0,0.00028734437099999996,4218543,78.90078711509705,-2.725822e-10,0.1173082,0.37881097,0.19999993,3,10,0,0.5,0.07,0.00028734442,1.25,100,15.188811,-0.024472719,0.44248713277875956,0.9864115,61.64757776260376,0.86162364,-0.1320249098909239,0.08099801528988307,2.466666666666667,2.466666666666667,14.415170952677727,181.83186
0.55172414,1,1501400,119.91379310344827,232.30783083474591,174,400.0,0.00028728323699999997,4238921,60.58391523361206,1.8172147e-10,0.107603535,0.40243903,0.19999993,3,10,0,0.5,0.07,0.00028728324,1.25,100,15.185261,-0.021262629,0.4387183868853823,0.976599,39.98900084197521,0.86130095,0.12163347650464118,0.14030969406537133,0.0,0.0,17.24146781861782,170.5038
0.60818714,1,1510040,119.86549707602339,244.02741796418584,171,400.0,0.00028722064199999996,4259786,85.06908583641052,1.2107193e-09,0.10697041,0.4,0.19999991,3,10,0,0.5,0.07,0.00028722076,1.25,100,15.153908,-0.02990384,0.4568695182798762,0.981038,41.19400446116924,0.8588729,0.18173268861856084,0.15994020926217328,2.475,3.6285714285714286,20.59397555887699,235.91782
0.58235294,1,1518680,119.11764705882354,234.2815540391532,170,400.0,0.000287159151,4280283,108.73771119117737,-1.1520805e-09,0.11053449,0.36984953,0.19999991,3,10,0,0.5,0.07,0.0002871593,1.25,100,15.121546,-0.025565127,0.43325670055140525,0.9863081,85.62882408499718,0.85671556,0.19223276313558613,0.17259163289953067,2.466666666666667,3.5200000000000005,43.88183529675007,176.04767
0.5168539,1,1527320,119.84269662921348,223.75487447732263,178,400.0,0.000287098401,4300533,59.26425266265869,-4.294821e-10,0.14389627,0.39246553,0.19999993,3,10,0,0.5,0.07,0.00028709852,1.25,100,15.111708,-0.032505468,0.4185214955121216,0.9870512,42.47428713738918,0.8559392,0.0,0.0,0.0,0.0,23.08208629488945,218.91756
0.5714286,1,1535960,120.0,241.28463227068838,168,400.0,0.000287034405,4321865,57.05971908569336,-2.2248262e-10,0.1642114,0.41310763,0.19999991,3,10,0,0.5,0.07,0.0002870345,1.25,100,15.083387,-0.018689197,0.4333692516229556,0.9867163,42.3346331268549,0.8539995,0.07968418272824984,0.038119240549870884,1.9333333333333336,1.0666666666666667,16.787478908896446,265.70078
0.52840906,1,1544600,119.625,231.17986901994615,176,400.0,0.000286973925,4342025,94.15584588050842,8.7680607e-10,0.14722067,0.40274394,0.19999993,3,10,0,0.5,0.07,0.00028697398,1.25,100,15.088181,-0.025763469,0.41083199790781516,0.98046845,41.12354135513306,0.8544013,0.10897057503205772,0.1389820181307476,3.0,3.95,14.725576311349869,187.31877
0.6459627,1,1553240,120.0,250.41605280819144,161,400.0,0.00028691076299999996,4363079,105.12915182113647,-4.9836657e-10,0.14004694,0.45540693,0.19999991,3,10,0,0.5,0.07,0.0002869107,1.25,100,15.075734,-0.0032407737,0.417745850607426,0.9886901,87.60049903392792,0.85358363,0.15860301104417265,0.16762113472913076,1.7,2.7600000000000002,53.031373620033264,173.91916
0.62352943,1,1561880,120.0,254.12375456677117,170,400.0,0.000286852803,4382399,58.65514063835144,-1.2594809e-09,0.16841151,0.36815032,0.19999991,3,10,0,0.5,0.07,0.00028685288,1.25,100,15.073889,-0.037013106,0.4302004805355389,0.9975049,44.95040783286095,0.8535315,0.2672509570016722,0.0541144626783015,2.92,3.2399999999999998,17.52695322036743,206.8488
0.5868263,1,1570520,119.86826347305389,244.17805175921973,167,400.0,0.000286791603,4402799,60.07084894180298,1.3504178e-09,0.13619387,0.38162616,0.19999991,3,10,0,0.5,0.07,0.0002867915,1.25,100,15.08493,-0.022824872,0.4459535328071995,0.9826614,43.06982369720936,0.85444415,-0.03290947661106471,-0.09058544576487869,2.066666666666667,3.0,13.660888627171516,231.61739
0.53672314,1,1579160,119.7909604519774,233.68131506131013,177,400.0,0.00028673154899999995,4422817,89.91165971755981,1.362911e-10,0.11805939,0.4237805,0.19999993,3,10,0,0.5,0.07,0.0002867316,1.25,100,15.08894,-0.025905874,0.4044586942622977,0.9795653,43.401482462882996,0.85492694,0.0,0.0,0.0,0.0,17.09870557487011,233.77873
0.55688626,1,1587800,119.80239520958084,239.78449000370674,167,400.0,0.00028666794,4444020,88.01594352722168,1.8859283e-09,0.145794,0.4,0.19999991,3,10,0,0.5,0.07,0.00028666787,1.25,100,15.086676,-0.02981675,0.43039478555713107,0.98586494,68.70226202905178,0.8547346,-0.10457988105849249,-0.20877105183654845,2.72,3.2,46.43314680457115,148.55295
0.3105802,1,1600640,117.61092150170649,167.7199678906542,293,400.0,0.000286607919,4464027,88.09899282455444,6.2088173e-10,0.11778438,0.34358972,0.19999991,3,10,0,0.5,0.07,0.00028660797,1.25,100,15.062258,-0.029821424,0.4614767455226131,0.9943963,70.44582721590996,0.8529979,0.0,-0.0816290654229636,0.0,0.0,19.28739859163761,219.00423
0.56287426,1,1609280,120.0,245.00638713869347,167,400.0,0.000286504539,4498487,65.97910237312317,1.8626451e-09,0.20000848,0.474375,0.19999991,3,10,0,0.5,0.07,0.0002865046,1.25,100,15.054631,-0.009784119,0.4245234131271248,0.97297937,50.95368479192257,0.8523,0.14224291855861546,0.19397106867399438,1.45,2.2800000000000002,17.657677114009857,209.08133
0.60493827,1,1617920,119.70370370370371,257.809683609079,162,400.0,0.000286444419,4518527,55.75210404396057,2.3880067e-09,0.14462638,0.4380342,0.19999991,3,10,0,0.5,0.07,0.00028644435,1.25,100,15.031135,-0.03355637,0.42369025020658296,0.9822055,40.41110680997372,0.8506869,-0.0759089005066806,0.043674933574956894,2.5599999999999996,3.35,15.003409281373024,152.4697
0.6084337,1,1626560,119.09638554216868,249.47749738570525,166,400.0,0.00028638624299999997,4537919,77.31153917312622,1.0029628e-09,0.21595317,0.42654914,0.19999991,3,10,0,0.5,0.07,0.00028638632,1.25,100,15.047814,-0.016203301,0.44318519279423707,0.98295027,39.89978067576885,0.85197026,0.0,0.0,0.0,0.0,15.345482766628265,128.31523
0.53892213,1,1635200,119.68263473053892,247.9877444981661,167,400.0,0.00028632693299999995,4557689,67.15293860435486,1.3592875e-09,0.13256326,0.41622025,0.19999991,3,10,0,0.5,0.07,0.0002863268,1.25,100,15.039691,-0.020956434,0.42263643458705424,0.98137033,51.06707829236984,0.85140383,0.13553082117824206,0.21062754566131678,3.04,2.971428571428572,37.42910432815552,148.33089
0.5606936,1,1643840,119.27745664739885,237.3343802035806,173,400.0,0.000286266972,4577676,78.96615767478943,-1.8656494e-09,0.14207572,0.3955897,0.19999991,3,10,0,0.5,0.07,0.00028626708,1.25,100,15.038017,-0.020683011,0.4344793955266876,0.9845749,59.844022035598755,0.85133445,0.018345580955878363,0.07544680858822324,2.1333333333333333,2.766666666666667,16.054333329200745,177.13235
0.5808383,1,1652480,120.0,249.73221169081617,167,400.0,0.000286205067,4598311,78.63252186775208,-1.05458586e-10,0.14486776,0.39223346,0.19999991,3,10,0,0.5,0.07,0.000286205,1.25,100,15.015295,-0.021648984,0.4197176195119667,1.001143,60.532990619540215,0.84974205,0.0,0.0,0.0,0.0,19.139448314905167,227.66833
0.6117647,1,1661120,119.95882352941176,251.17491618848564,170,400.0,0.00028614494699999996,4618351,68.91502976417542,2.4746571e-09,0.10087764,0.37589285,0.19999991,3,10,0,0.5,0.07,0.00028614508,1.25,100,15.010859,-0.032703567,0.44180241330227776,0.9814808,51.34891079366207,0.8494023,0.2435252695621614,0.0764703267129993,2.85,3.75,18.07683689892292,134.3473
0.6708861,1,1669760,119.79113924050633,275.33373201525575,158,400.0,0.000286083768,4638744,78.20079040527344,1.8645098e-11,0.09909055,0.37794045,0.19999993,3,10,0,0.5,0.07,0.0002860837,1.25,100,15.005308,-0.03604153,0.427621826196956,0.99425435,62.598611041903496,0.8490607,0.0252953136224014,0.02206654572709675,2.4,2.7142857142857144,17.548736318945885,112.69043
0.7133758,1,1678400,119.89808917197452,275.8162180214678,157,400.0,0.000286026987,4657671,59.082749366760254,-2.7464229e-09,0.13114923,0.41948196,0.19999993,3,10,0,0.5,0.07,0.0002860269,1.25,100,15.010957,-0.011287795,0.4581165185381696,0.9888923,44.0574541836977,0.8495413,0.27492340580631225,0.07349764401212525,2.9,3.12,15.597287118434906,130.12227
0.65030676,1,1687040,119.98159509202453,261.53039167670494,163,400.0,0.000285970515,4676495,91.18736410140991,-1.4541701e-10,0.10678172,0.41864038,0.19999993,3,10,0,0.5,0.07,0.0002859704,1.25,100,15.003254,-0.020190896,0.4409992663079774,0.9952696,39.61725467443466,0.8490275,0.11533254597458703,0.1160034277579224,2.1666666666666665,2.6666666666666665,15.022782012820244,115.275085
0.625,1,1695680,119.94375,266.2687402055827,160,400.0,0.000285911844,4696052,157.604994058609,-5.253615e-10,0.10947951,0.39983973,0.19999991,3,10,0,0.5,0.07,0.00028591198,1.25,100,14.979505,-0.021964526,0.4380440751166,0.98792315,128.03829446434975,0.8474442,0.15897832150306818,0.1798052794821598,1.08,2.566666666666667,51.602782756090164,132.8187
0.6130952,1,1704320,119.63690476190476,253.69422720443288,168,400.0,0.000285854271,4715243,110.31929636001587,-2.6356517e-10,0.13667142,0.39506173,0.19999991,3,10,0,0.5,0.07,0.0002858543,1.25,100,14.987832,-0.013969512,0.42288407045328036,0.9982184,85.84198293089867,0.8478503,0.13891901758403746,-0.06862564814091247,0.0,0.0,29.525261864066124,168.13103
0.6687898,1,1712960,120.0,280.3666269060659,157,400.0,0.00028579397399999996,4735342,93.7748372554779,1.6264262e-09,0.14892864,0.3976741,0.19999993,3,10,0,0.5,0.07,0.000285794,1.25,100,14.993451,-0.027127106,0.4462501727654983,0.98741096,77.12874902784824,0.84817094,-0.03925159616613329,-0.03950798412399479,1.7333333333333334,2.8666666666666667,24.482476785779,157.74014
0.5406977,1,1721600,119.78488372093024,232.94139858073476,172,400.0,0.00028573745399999997,4754182,96.43081760406494,2.1907534e-09,0.11572301,0.40836722,0.19999993,3,10,0,0.5,0.07,0.0002857373,1.25,100,14.954454,-0.022002563,0.4279426552104638,0.98287565,53.60018000006676,0.84557545,0.058766801092665084,0.0,0.0,0.0,16.624948352575302,185.4266
0.5406977,1,1730240,119.54651162790698,234.97585027691093,172,400.0,0.00028567564499999996,4774785,83.86925506591797,-1.7717844e-09,0.103,0.42911586,0.19999993,3,10,0,0.5,0.07,0.00028567572,1.25,100,14.944177,-0.030782664,0.41543151114611276,0.99310833,66.75981642305851,0.84483767,0.2591071826147415,0.08240393827850702,2.2800000000000002,3.6,42.82080139219761,173.44771
0.6331361,1,1738880,119.63313609467455,257.2410097588964,169,400.0,0.000285613959,4795347,70.07129907608032,1.050723e-09,0.124731936,0.43589744,0.19999991,3,10,0,0.5,0.07,0.00028561402,1.25,100,14.919756,-0.025406292,0.43976726035855956,0.9950639,56.40255093574524,0.8430844,0.13825545576278522,0.14581606928212323,3.2285714285714286,2.8333333333333335,17.11541749536991,139.99722
0.57575756,1,1747520,120.0,251.64171813854205,165,400.0,0.000285553305,4815565,86.15468263626099,6.4834377e-10,0.1282768,0.40799278,0.19999991,3,10,0,0.5,0.07,0.00028555345,1.25,100,14.927495,-0.024773385,0.4205319635296746,0.9893839,49.14657750725746,0.8435334,0.1607675873097661,-0.054861200867794314,2.4,2.066666666666667,13.651946663856506,141.33682
0.5952381,1,1756160,119.95833333333333,253.24095771088867,168,400.0,0.00028549390499999996,4835365,79.54290747642517,1.5300299e-10,0.16202523,0.41305804,0.19999991,3,10,0,0.5,0.07,0.00028549405,1.25,100,14.909938,-0.024394976,0.42009041090999366,0.97149193,45.162295415997505,0.8423389,-0.024751994477047817,-0.02974619555044482,1.7999999999999998,2.466666666666667,36.985105350613594,205.69385
0.59876543,1,1764800,119.94444444444444,257.949360582342,162,400.0,0.000285433446,4855518,131.86038327217102,-3.0088882e-09,0.08677486,0.43269232,0.19999991,3,10,0,0.5,0.07,0.00028543355,1.25,100,14.890806,-0.029315423,0.43156526173517157,0.977801,80.745561003685,0.84096324,0.13804446400856343,0.1610984442433509,2.9200000000000004,3.0666666666666664,34.40487952530384,169.43921
0.2979452,1,1777640,118.22260273972603,165.5647090758231,292,400.0,0.00028537515299999997,4874949,102.43748831748962,-1.3786758e-09,0.19696872,0.415812,0.19999991,3,10,0,0.5,0.07,0.00028537502,1.25,100,14.875193,-0.019308066,0.40284487620927134,0.9801355,76.57467158138752,0.8397859,0.11565795585768504,0.103168938073233,0.0,0.0,51.09311172366142,188.73798
0.6506024,1,1786280,119.92771084337349,263.24641134362815,166,400.0,0.00028527158999999995,4909470,120.50567317008972,3.8746753e-10,0.11338573,0.3735119,0.19999993,3,10,0,0.5,0.07,0.00028527158,1.25,100,14.870941,-0.037691735,0.4371471184432047,0.987219,61.32514284551144,0.8395095,0.16084476812875118,0.14297158926957343,1.7666666666666668,2.8666666666666667,25.812317118048668,88.69952
0.58235294,1,1794920,119.97647058823529,255.6220113117783,170,400.0,0.000285211866,4929378,165.32311916351318,1.8172147e-10,0.12618846,0.38262194,0.19999993,3,10,0,0.5,0.07,0.00028521192,1.25,100,14.838679,-0.023737997,0.4243489086899824,0.9728613,111.80485872924328,0.83718824,0.15590824718562593,0.13554615448569715,0.1,0.9,59.19774195551872,170.56511
0.5731707,1,1803560,119.9451219512195,247.33272003783367,164,400.0,0.00028515067799999997,4949774,114.5339412689209,-1.5832484e-09,0.13989969,0.4009375,0.19999991,3,10,0,0.5,0.07,0.00028515054,1.25,100,14.820335,-0.037087005,0.4050340216605125,0.98316514,96.5311679393053,0.8359753,0.09899049301458288,-0.21746072356013105,1.9333333333333333,1.4,53.49676075577736,137.48978
0.56395346,1,1812200,119.91279069767442,249.19543042273185,172,400.0,0.00028509166499999996,4969445,78.06913757324219,1.6763806e-09,0.10696775,0.4421875,0.19999991,3,10,0,0.5,0.07,0.00028509175,1.25,100,14.784563,-0.011061652,0.4504954596689778,0.9798049,55.44410918653011,0.83356726,0.17325999603592235,0.20014348919583203,2.0,2.542857142857143,18.084271624684334,145.40485
0.6,1,1820840,119.78235294117647,245.61321353282753,170,400.0,0.00028502978999999994,4990070,82.05908751487732,-1.8268251e-10,0.08640807,0.38401443,0.19999991,3,10,0,0.5,0.07,0.0002850297,1.25,100,14.793953,-0.015696976,0.43577295232310576,1.0050776,69.80182772874832,0.83432853,0.0,-0.10328799710743727,0.0,0.0,22.51320506632328,124.26186
0.5433526,1,1829480,119.878612716763,239.8287430768289,173,400.0,0.000284968701,5010433,119.43742156028748,-9.410576e-10,0.115562916,0.4433798,0.19999993,3,10,0,0.5,0.07,0.00028496882,1.25,100,14.777152,-0.019587515,0.4521288188544389,0.98005074,52.05569103360176,0.8330488,0.0,-0.057971966933668385,0.0,0.0,12.231313318014145,173.62964
0.6121212,1,1838120,119.9090909090909,252.7386708494736,165,400.0,0.000284906484,5031172,82.0440719127655,2.3945195e-09,0.1357697,0.4027535,0.19999991,3,10,0,0.5,0.07,0.00028490648,1.25,100,14.776101,-0.02971713,0.428718098136451,0.99467975,63.13344848155975,0.8329956,0.16643992097802726,0.13311209305593047,3.2,3.033333333333333,67.4016667753458,196.55414
0.63190186,1,1846760,119.93865030674847,262.79687439911106,163,400.0,0.000284847129,5050957,102.22418999671936,-4.3939322e-10,0.11987219,0.37975428,0.19999991,3,10,0,0.5,0.07,0.00028484713,1.25,100,14.782708,-0.017251754,0.43450118164280915,0.9969029,55.57359699904919,0.83350766,-0.06748341807876183,-0.02238646592097933,2.95,3.5,18.88547407090664,189.37552
0.6,1,1855400,119.97058823529412,245.79304061023072,170,400.0,0.000284788479,5070507,89.37448859214783,1.4901161e-09,0.148249,0.40190974,0.19999991,3,10,0,0.5,0.07,0.00028478846,1.25,100,14.782079,-0.029463526,0.43095746386886286,0.9817624,48.00926139950752,0.83356065,0.0,0.0,0.0,0.0,46.652506306767464,150.2573
0.60946745,1,1864040,119.88165680473372,252.23444628897775,169,400.0,0.000284727294,5090902,67.1348934173584,2.852872e-09,0.14488615,0.44850427,0.19999991,3,10,0,0.5,0.07,0.00028472734,1.25,100,14.760875,-0.030194143,0.450314394144997,0.99341327,49.84243506193161,0.83212554,0.13444756101880254,-0.014295111393308278,0.0,0.0,41.351327911019325,265.46518
0.5808383,1,1872680,119.76646706586827,240.2230192965967,167,400.0,0.000284666514,5111162,195.57994747161865,8.2488566e-10,0.15988852,0.49966517,0.19999991,3,10,0,0.5,0.07,0.00028466646,1.25,100,14.748831,-0.014222073,0.4381356190879206,0.9790224,86.76758816838264,0.8312837,0.13165400974723385,0.15835780782807699,1.04,2.6,17.282507464289665,165.27971
0.621118,1,1881320,119.94409937888199,268.3514754703403,161,400.0,0.000284606511,5131163,163.28655099868774,-7.8427165e-10,0.1239012,0.3720819,0.19999993,3,10,0,0.5,0.07,0.00028460656,1.25,100,14.765636,-0.03511432,0.4373391643836609,0.9889172,147.0394325852394,0.8325231,0.11145198793024971,0.13940495748477946,2.85,3.6571428571428575,108.96437665820122,136.18192
0.63414633,1,1889960,119.85365853658537,258.69752627748045,164,400.0,0.00028454857799999994,5150474,76.55985641479492,3.67753e-09,0.15589362,0.4040751,0.19999991,3,10,0,0.5,0.07,0.0002845486,1.25,100,14.7833395,-0.024549235,0.4372005393190069,0.98554033,63.94285576045513,0.8338623,0.0,0.0,0.0,0.0,16.070912718772888,143.82684
0.6385542,1,1898600,119.92168674698796,257.5892348783523,166,400.0,0.00028448960999999997,5170130,84.14044690132141,-9.722598e-10,0.14198987,0.43364623,0.19999991,3,10,0,0.5,0.07,0.00028448956,1.25,100,14.770715,-0.02162226,0.410300377859632,0.9784891,67.87867812812328,0.8330768,0.1552913008765435,0.13341625924595302,2.566666666666667,3.44,12.604325130581856,119.02117
0.57831323,1,1907240,119.7710843373494,248.9015438956876,166,400.0,0.00028442988899999997,5190037,64.17583727836609,2.0253833e-10,0.09600968,0.38725665,0.19999991,3,10,0,0.5,0.07,0.0002844299,1.25,100,14.765373,-0.03604759,0.4520724714890438,0.9866238,47.56741951406002,0.83263516,0.1301463533441078,0.12319073077710303,2.7714285714285714,2.1714285714285713,16.255227386951447,148.41228
0.5813953,1,1915880,119.79651162790698,242.8103800711796,172,400.0,0.000284370243,5209919,155.60597229003906,-1.0095642e-11,0.108103216,0.43343496,0.19999993,3,10,0,0.5,0.07,0.0002843701,1.25,100,14.760121,-0.038039215,0.44342021461413994,0.99710166,48.65644723176956,0.8322311,0.14744254904025866,0.1995724614255162,3.2399999999999998,2.466666666666667,16.580437809228897,143.6309
0.56804734,1,1924520,120.0,242.8848647640263,169,400.0,0.00028430842799999996,5230524,134.4820215702057,4.749745e-09,0.18549988,0.44770223,0.19999991,3,10,0,0.5,0.07,0.0002843085,1.25,100,14.750181,-0.037491314,0.4430869360246117,0.9873193,100.48619562387466,0.83159524,0.0,0.0,0.0,0.0,107.36669825017452,120.73924
0.597561,1,1933160,120.0,256.3274669694542,164,400.0,0.000284247588,5250804,79.03790163993835,-9.208153e-10,0.13268133,0.4230128,0.19999991,3,10,0,0.5,0.07,0.0002842477,1.25,100,14.749163,-0.033605434,0.4449955961093936,0.9727432,47.83222912251949,0.8315358,0.2471263802347268,0.1968807962862102,0.7333333333333334,2.0,33.566241979599,110.22934
0.64285713,1,1941800,119.93452380952381,260.4697362042102,168,400.0,0.000284188548,5270484,89.97444105148315,2.3880067e-10,0.16701405,0.39129275,0.19999991,3,10,0,0.5,0.07,0.00028418846,1.25,100,14.742217,-0.024642078,0.4302392899416854,0.98246646,43.76742132008076,0.8310396,-0.007845775046047672,0.2170144325294588,2.5666666666666664,3.0,31.205035254359245,208.48546
0.3240418,1,1954640,116.69337979094077,169.79778461673837,287,400.0,0.00028412810099999995,5290633,159.73792457580566,-1.3285292e-09,0.14192979,0.44181037,0.19999993,3,10,0,0.5,0.07,0.00028412798,1.25,100,14.74207,-0.0086099645,0.45712310696432096,0.9776651,99.60743017494678,0.8310376,-0.09962960754582315,-0.11324708542795892,2.35,3.0,46.200380980968475,173.3409
0.54285717,1,1963280,119.10857142857142,233.3333363986402,175,400.0,0.000284027628,5324124,241.02491450309753,-2.7306042e-09,0.13803294,0.39313224,0.19999993,3,10,0,0.5,0.07,0.00028402757,1.25,100,14.735502,-0.031161038,0.44253831727104387,0.97714514,92.47192764282227,0.8305677,0.0,0.0,0.0,0.0,60.11565037071705,233.30376
0.6545454,1,1971920,119.96363636363637,268.3750653981459,165,400.0,0.000283965096,5344968,117.68457055091858,4.9016978e-11,0.086525954,0.4207176,0.19999993,3,10,0,0.5,0.07,0.000283965,1.25,100,14.731011,-0.02634258,0.43158473755778487,0.99884295,98.30364501476288,0.8303825,0.14458924893302055,-0.009184465327357508,0.0,0.0,148.58250661194324,168.17769
0.6603774,1,1980560,119.44654088050315,279.6826532458342,159,400.0,0.00028390571399999995,5364762,249.26992511749268,1.6175603e-09,0.092332706,0.40625,0.19999993,3,10,0,0.5,0.07,0.00028390563,1.25,100,14.723372,-0.029541368,0.44272568545390206,0.9785303,97.75690792500973,0.82999337,-0.09316112846544879,0.08632369520582513,0.0,0.0,19.336644649505615,216.70496
