Hash:5f478ce92fa89a48fdcabf585960c3dd3997ecc1
{
  "cur_decay": "exp",
  "decay_rate": 1,
  "decay": 0.85,
  "yu": false,
  "rand_Kp": false,
  "early_stop": true,
  "cur_local": true,
  "cur_len": 1200,
  "cur_num": 3,
  "show_detection": false,
  "num_artifacts": 2,
  "inc": 1,
  "camera_rate": 6,
  "terrain_first": true,
  "advantage2": true,
  "include_actions": false,
  "const_std": false,
  "const_lr": false,
  "single_pol": false,
  "comparison": null,
  "use_roa": false,
  "baseline": false,
  "rand_flat": false,
  "new": false,
  "box_pen": false,
  "eval": true,
  "eval_dist": false,
  "initial_disturbance": 500,
  "final_disturbance": 500,
  "difficulty": 1,
  "folder": "b",
  "nicks": false,
  "vf_only": false,
  "speed_cur": false,
  "expert": false,
  "use_base": false,
  "separate_vf": false,
  "display_doa": false,
  "act": false,
  "forces": false,
  "render": false,
  "hpc": false,
  "lstm_pol": false,
  "test_pol": false,
  "vis": true,
  "vis_type": "depth",
  "cur": true,
  "mocap": false,
  "display_im": false,
  "exp": "hj",
  "obstacle_type": "high_jumps",
  "control_type": "walk",
  "seed": 42,
  "max_ts": 50000000.0,
  "lr": 0.0003,
  "vf_lr": 0.0003
}